^C:\USERS\7\GOOGLE DRIVE\SEM 2\COS30031 - GAMES PROGRAMMING\GIT\ZORKISH-V3\ZORKISH_V3\ZORKISH_V3\ABOUT.CPP
/c /ZI /nologo /W3 /WX- /Od /D _DEBUG /D _CONSOLE /D _UNICODE /D UNICODE /Gm /EHsc /RTC1 /MDd /GS /fp:precise /Zc:wchar_t /Zc:forScope /Zc:inline /Fo"X64\DEBUG\\" /Fd"X64\DEBUG\VC140.PDB" /Gd /TP C:\USERS\7\GOOGLE DRIVE\SEM 2\COS30031 - GAMES PROGRAMMING\GIT\ZORKISH-V3\ZORKISH_V3\ZORKISH_V3\ABOUT.CPP
^C:\USERS\7\GOOGLE DRIVE\SEM 2\COS30031 - GAMES PROGRAMMING\GIT\ZORKISH-V3\ZORKISH_V3\ZORKISH_V3\ANNOUNCESYS.CPP
/c /ZI /nologo /W3 /WX- /Od /D _DEBUG /D _CONSOLE /D _UNICODE /D UNICODE /Gm /EHsc /RTC1 /MDd /GS /fp:precise /Zc:wchar_t /Zc:forScope /Zc:inline /Fo"X64\DEBUG\\" /Fd"X64\DEBUG\VC140.PDB" /Gd /TP C:\USERS\7\GOOGLE DRIVE\SEM 2\COS30031 - GAMES PROGRAMMING\GIT\ZORKISH-V3\ZORKISH_V3\ZORKISH_V3\ANNOUNCESYS.CPP
^C:\USERS\7\GOOGLE DRIVE\SEM 2\COS30031 - GAMES PROGRAMMING\GIT\ZORKISH-V3\ZORKISH_V3\ZORKISH_V3\BACKCOMMAND.CPP
/c /ZI /nologo /W3 /WX- /Od /D _DEBUG /D _CONSOLE /D _UNICODE /D UNICODE /Gm /EHsc /RTC1 /MDd /GS /fp:precise /Zc:wchar_t /Zc:forScope /Zc:inline /Fo"X64\DEBUG\\" /Fd"X64\DEBUG\VC140.PDB" /Gd /TP C:\USERS\7\GOOGLE DRIVE\SEM 2\COS30031 - GAMES PROGRAMMING\GIT\ZORKISH-V3\ZORKISH_V3\ZORKISH_V3\BACKCOMMAND.CPP
^C:\USERS\7\GOOGLE DRIVE\SEM 2\COS30031 - GAMES PROGRAMMING\GIT\ZORKISH-V3\ZORKISH_V3\ZORKISH_V3\BAG.CPP
/c /ZI /nologo /W3 /WX- /Od /D _DEBUG /D _CONSOLE /D _UNICODE /D UNICODE /Gm /EHsc /RTC1 /MDd /GS /fp:precise /Zc:wchar_t /Zc:forScope /Zc:inline /Fo"X64\DEBUG\\" /Fd"X64\DEBUG\VC140.PDB" /Gd /TP C:\USERS\7\GOOGLE DRIVE\SEM 2\COS30031 - GAMES PROGRAMMING\GIT\ZORKISH-V3\ZORKISH_V3\ZORKISH_V3\BAG.CPP
^C:\USERS\7\GOOGLE DRIVE\SEM 2\COS30031 - GAMES PROGRAMMING\GIT\ZORKISH-V3\ZORKISH_V3\ZORKISH_V3\CHANNEL.CPP
/c /ZI /nologo /W3 /WX- /Od /D _DEBUG /D _CONSOLE /D _UNICODE /D UNICODE /Gm /EHsc /RTC1 /MDd /GS /fp:precise /Zc:wchar_t /Zc:forScope /Zc:inline /Fo"X64\DEBUG\\" /Fd"X64\DEBUG\VC140.PDB" /Gd /TP C:\USERS\7\GOOGLE DRIVE\SEM 2\COS30031 - GAMES PROGRAMMING\GIT\ZORKISH-V3\ZORKISH_V3\ZORKISH_V3\CHANNEL.CPP
^C:\USERS\7\GOOGLE DRIVE\SEM 2\COS30031 - GAMES PROGRAMMING\GIT\ZORKISH-V3\ZORKISH_V3\ZORKISH_V3\CHECKSCORECOMMAND.CPP
/c /ZI /nologo /W3 /WX- /Od /D _DEBUG /D _CONSOLE /D _UNICODE /D UNICODE /Gm /EHsc /RTC1 /MDd /GS /fp:precise /Zc:wchar_t /Zc:forScope /Zc:inline /Fo"X64\DEBUG\\" /Fd"X64\DEBUG\VC140.PDB" /Gd /TP C:\USERS\7\GOOGLE DRIVE\SEM 2\COS30031 - GAMES PROGRAMMING\GIT\ZORKISH-V3\ZORKISH_V3\ZORKISH_V3\CHECKSCORECOMMAND.CPP
^C:\USERS\7\GOOGLE DRIVE\SEM 2\COS30031 - GAMES PROGRAMMING\GIT\ZORKISH-V3\ZORKISH_V3\ZORKISH_V3\COMMAND.CPP
/c /ZI /nologo /W3 /WX- /Od /D _DEBUG /D _CONSOLE /D _UNICODE /D UNICODE /Gm /EHsc /RTC1 /MDd /GS /fp:precise /Zc:wchar_t /Zc:forScope /Zc:inline /Fo"X64\DEBUG\\" /Fd"X64\DEBUG\VC140.PDB" /Gd /TP C:\USERS\7\GOOGLE DRIVE\SEM 2\COS30031 - GAMES PROGRAMMING\GIT\ZORKISH-V3\ZORKISH_V3\ZORKISH_V3\COMMAND.CPP
^C:\USERS\7\GOOGLE DRIVE\SEM 2\COS30031 - GAMES PROGRAMMING\GIT\ZORKISH-V3\ZORKISH_V3\ZORKISH_V3\COMMANDPROCESSOR.CPP
/c /ZI /nologo /W3 /WX- /Od /D _DEBUG /D _CONSOLE /D _UNICODE /D UNICODE /Gm /EHsc /RTC1 /MDd /GS /fp:precise /Zc:wchar_t /Zc:forScope /Zc:inline /Fo"X64\DEBUG\\" /Fd"X64\DEBUG\VC140.PDB" /Gd /TP C:\USERS\7\GOOGLE DRIVE\SEM 2\COS30031 - GAMES PROGRAMMING\GIT\ZORKISH-V3\ZORKISH_V3\ZORKISH_V3\COMMANDPROCESSOR.CPP
^C:\USERS\7\GOOGLE DRIVE\SEM 2\COS30031 - GAMES PROGRAMMING\GIT\ZORKISH-V3\ZORKISH_V3\ZORKISH_V3\CREATECOMMAND.CPP
/c /ZI /nologo /W3 /WX- /Od /D _DEBUG /D _CONSOLE /D _UNICODE /D UNICODE /Gm /EHsc /RTC1 /MDd /GS /fp:precise /Zc:wchar_t /Zc:forScope /Zc:inline /Fo"X64\DEBUG\\" /Fd"X64\DEBUG\VC140.PDB" /Gd /TP C:\USERS\7\GOOGLE DRIVE\SEM 2\COS30031 - GAMES PROGRAMMING\GIT\ZORKISH-V3\ZORKISH_V3\ZORKISH_V3\CREATECOMMAND.CPP
^C:\USERS\7\GOOGLE DRIVE\SEM 2\COS30031 - GAMES PROGRAMMING\GIT\ZORKISH-V3\ZORKISH_V3\ZORKISH_V3\GAMEOBJECT.CPP
/c /ZI /nologo /W3 /WX- /Od /D _DEBUG /D _CONSOLE /D _UNICODE /D UNICODE /Gm /EHsc /RTC1 /MDd /GS /fp:precise /Zc:wchar_t /Zc:forScope /Zc:inline /Fo"X64\DEBUG\\" /Fd"X64\DEBUG\VC140.PDB" /Gd /TP C:\USERS\7\GOOGLE DRIVE\SEM 2\COS30031 - GAMES PROGRAMMING\GIT\ZORKISH-V3\ZORKISH_V3\ZORKISH_V3\GAMEOBJECT.CPP
^C:\USERS\7\GOOGLE DRIVE\SEM 2\COS30031 - GAMES PROGRAMMING\GIT\ZORKISH-V3\ZORKISH_V3\ZORKISH_V3\GAMEPLAY.CPP
/c /ZI /nologo /W3 /WX- /Od /D _DEBUG /D _CONSOLE /D _UNICODE /D UNICODE /Gm /EHsc /RTC1 /MDd /GS /fp:precise /Zc:wchar_t /Zc:forScope /Zc:inline /Fo"X64\DEBUG\\" /Fd"X64\DEBUG\VC140.PDB" /Gd /TP C:\USERS\7\GOOGLE DRIVE\SEM 2\COS30031 - GAMES PROGRAMMING\GIT\ZORKISH-V3\ZORKISH_V3\ZORKISH_V3\GAMEPLAY.CPP
^C:\USERS\7\GOOGLE DRIVE\SEM 2\COS30031 - GAMES PROGRAMMING\GIT\ZORKISH-V3\ZORKISH_V3\ZORKISH_V3\GAMESTATEMANAGER.CPP
/c /ZI /nologo /W3 /WX- /Od /D _DEBUG /D _CONSOLE /D _UNICODE /D UNICODE /Gm /EHsc /RTC1 /MDd /GS /fp:precise /Zc:wchar_t /Zc:forScope /Zc:inline /Fo"X64\DEBUG\\" /Fd"X64\DEBUG\VC140.PDB" /Gd /TP C:\USERS\7\GOOGLE DRIVE\SEM 2\COS30031 - GAMES PROGRAMMING\GIT\ZORKISH-V3\ZORKISH_V3\ZORKISH_V3\GAMESTATEMANAGER.CPP
^C:\USERS\7\GOOGLE DRIVE\SEM 2\COS30031 - GAMES PROGRAMMING\GIT\ZORKISH-V3\ZORKISH_V3\ZORKISH_V3\HALLOFFAME.CPP
/c /ZI /nologo /W3 /WX- /Od /D _DEBUG /D _CONSOLE /D _UNICODE /D UNICODE /Gm /EHsc /RTC1 /MDd /GS /fp:precise /Zc:wchar_t /Zc:forScope /Zc:inline /Fo"X64\DEBUG\\" /Fd"X64\DEBUG\VC140.PDB" /Gd /TP C:\USERS\7\GOOGLE DRIVE\SEM 2\COS30031 - GAMES PROGRAMMING\GIT\ZORKISH-V3\ZORKISH_V3\ZORKISH_V3\HALLOFFAME.CPP
^C:\USERS\7\GOOGLE DRIVE\SEM 2\COS30031 - GAMES PROGRAMMING\GIT\ZORKISH-V3\ZORKISH_V3\ZORKISH_V3\HELP.CPP
/c /ZI /nologo /W3 /WX- /Od /D _DEBUG /D _CONSOLE /D _UNICODE /D UNICODE /Gm /EHsc /RTC1 /MDd /GS /fp:precise /Zc:wchar_t /Zc:forScope /Zc:inline /Fo"X64\DEBUG\\" /Fd"X64\DEBUG\VC140.PDB" /Gd /TP C:\USERS\7\GOOGLE DRIVE\SEM 2\COS30031 - GAMES PROGRAMMING\GIT\ZORKISH-V3\ZORKISH_V3\ZORKISH_V3\HELP.CPP
^C:\USERS\7\GOOGLE DRIVE\SEM 2\COS30031 - GAMES PROGRAMMING\GIT\ZORKISH-V3\ZORKISH_V3\ZORKISH_V3\IDENTIFIABLEOBJECT.CPP
/c /ZI /nologo /W3 /WX- /Od /D _DEBUG /D _CONSOLE /D _UNICODE /D UNICODE /Gm /EHsc /RTC1 /MDd /GS /fp:precise /Zc:wchar_t /Zc:forScope /Zc:inline /Fo"X64\DEBUG\\" /Fd"X64\DEBUG\VC140.PDB" /Gd /TP C:\USERS\7\GOOGLE DRIVE\SEM 2\COS30031 - GAMES PROGRAMMING\GIT\ZORKISH-V3\ZORKISH_V3\ZORKISH_V3\IDENTIFIABLEOBJECT.CPP
^C:\USERS\7\GOOGLE DRIVE\SEM 2\COS30031 - GAMES PROGRAMMING\GIT\ZORKISH-V3\ZORKISH_V3\ZORKISH_V3\INVENTORY.CPP
/c /ZI /nologo /W3 /WX- /Od /D _DEBUG /D _CONSOLE /D _UNICODE /D UNICODE /Gm /EHsc /RTC1 /MDd /GS /fp:precise /Zc:wchar_t /Zc:forScope /Zc:inline /Fo"X64\DEBUG\\" /Fd"X64\DEBUG\VC140.PDB" /Gd /TP C:\USERS\7\GOOGLE DRIVE\SEM 2\COS30031 - GAMES PROGRAMMING\GIT\ZORKISH-V3\ZORKISH_V3\ZORKISH_V3\INVENTORY.CPP
^C:\USERS\7\GOOGLE DRIVE\SEM 2\COS30031 - GAMES PROGRAMMING\GIT\ZORKISH-V3\ZORKISH_V3\ZORKISH_V3\ITEM.CPP
/c /ZI /nologo /W3 /WX- /Od /D _DEBUG /D _CONSOLE /D _UNICODE /D UNICODE /Gm /EHsc /RTC1 /MDd /GS /fp:precise /Zc:wchar_t /Zc:forScope /Zc:inline /Fo"X64\DEBUG\\" /Fd"X64\DEBUG\VC140.PDB" /Gd /TP C:\USERS\7\GOOGLE DRIVE\SEM 2\COS30031 - GAMES PROGRAMMING\GIT\ZORKISH-V3\ZORKISH_V3\ZORKISH_V3\ITEM.CPP
^C:\USERS\7\GOOGLE DRIVE\SEM 2\COS30031 - GAMES PROGRAMMING\GIT\ZORKISH-V3\ZORKISH_V3\ZORKISH_V3\LOCATION.CPP
/c /ZI /nologo /W3 /WX- /Od /D _DEBUG /D _CONSOLE /D _UNICODE /D UNICODE /Gm /EHsc /RTC1 /MDd /GS /fp:precise /Zc:wchar_t /Zc:forScope /Zc:inline /Fo"X64\DEBUG\\" /Fd"X64\DEBUG\VC140.PDB" /Gd /TP C:\USERS\7\GOOGLE DRIVE\SEM 2\COS30031 - GAMES PROGRAMMING\GIT\ZORKISH-V3\ZORKISH_V3\ZORKISH_V3\LOCATION.CPP
^C:\USERS\7\GOOGLE DRIVE\SEM 2\COS30031 - GAMES PROGRAMMING\GIT\ZORKISH-V3\ZORKISH_V3\ZORKISH_V3\LOOKCOMMAND.CPP
/c /ZI /nologo /W3 /WX- /Od /D _DEBUG /D _CONSOLE /D _UNICODE /D UNICODE /Gm /EHsc /RTC1 /MDd /GS /fp:precise /Zc:wchar_t /Zc:forScope /Zc:inline /Fo"X64\DEBUG\\" /Fd"X64\DEBUG\VC140.PDB" /Gd /TP C:\USERS\7\GOOGLE DRIVE\SEM 2\COS30031 - GAMES PROGRAMMING\GIT\ZORKISH-V3\ZORKISH_V3\ZORKISH_V3\LOOKCOMMAND.CPP
^C:\USERS\7\GOOGLE DRIVE\SEM 2\COS30031 - GAMES PROGRAMMING\GIT\ZORKISH-V3\ZORKISH_V3\ZORKISH_V3\MAIN.CPP
/c /ZI /nologo /W3 /WX- /Od /D _DEBUG /D _CONSOLE /D _UNICODE /D UNICODE /Gm /EHsc /RTC1 /MDd /GS /fp:precise /Zc:wchar_t /Zc:forScope /Zc:inline /Fo"X64\DEBUG\\" /Fd"X64\DEBUG\VC140.PDB" /Gd /TP C:\USERS\7\GOOGLE DRIVE\SEM 2\COS30031 - GAMES PROGRAMMING\GIT\ZORKISH-V3\ZORKISH_V3\ZORKISH_V3\MAIN.CPP
^C:\USERS\7\GOOGLE DRIVE\SEM 2\COS30031 - GAMES PROGRAMMING\GIT\ZORKISH-V3\ZORKISH_V3\ZORKISH_V3\MAINMENU.CPP
/c /ZI /nologo /W3 /WX- /Od /D _DEBUG /D _CONSOLE /D _UNICODE /D UNICODE /Gm /EHsc /RTC1 /MDd /GS /fp:precise /Zc:wchar_t /Zc:forScope /Zc:inline /Fo"X64\DEBUG\\" /Fd"X64\DEBUG\VC140.PDB" /Gd /TP C:\USERS\7\GOOGLE DRIVE\SEM 2\COS30031 - GAMES PROGRAMMING\GIT\ZORKISH-V3\ZORKISH_V3\ZORKISH_V3\MAINMENU.CPP
^C:\USERS\7\GOOGLE DRIVE\SEM 2\COS30031 - GAMES PROGRAMMING\GIT\ZORKISH-V3\ZORKISH_V3\ZORKISH_V3\MESSAGE.CPP
/c /ZI /nologo /W3 /WX- /Od /D _DEBUG /D _CONSOLE /D _UNICODE /D UNICODE /Gm /EHsc /RTC1 /MDd /GS /fp:precise /Zc:wchar_t /Zc:forScope /Zc:inline /Fo"X64\DEBUG\\" /Fd"X64\DEBUG\VC140.PDB" /Gd /TP C:\USERS\7\GOOGLE DRIVE\SEM 2\COS30031 - GAMES PROGRAMMING\GIT\ZORKISH-V3\ZORKISH_V3\ZORKISH_V3\MESSAGE.CPP
^C:\USERS\7\GOOGLE DRIVE\SEM 2\COS30031 - GAMES PROGRAMMING\GIT\ZORKISH-V3\ZORKISH_V3\ZORKISH_V3\MESSAGECENTRE.CPP
/c /ZI /nologo /W3 /WX- /Od /D _DEBUG /D _CONSOLE /D _UNICODE /D UNICODE /Gm /EHsc /RTC1 /MDd /GS /fp:precise /Zc:wchar_t /Zc:forScope /Zc:inline /Fo"X64\DEBUG\\" /Fd"X64\DEBUG\VC140.PDB" /Gd /TP C:\USERS\7\GOOGLE DRIVE\SEM 2\COS30031 - GAMES PROGRAMMING\GIT\ZORKISH-V3\ZORKISH_V3\ZORKISH_V3\MESSAGECENTRE.CPP
^C:\USERS\7\GOOGLE DRIVE\SEM 2\COS30031 - GAMES PROGRAMMING\GIT\ZORKISH-V3\ZORKISH_V3\ZORKISH_V3\MOVECOMMAND.CPP
/c /ZI /nologo /W3 /WX- /Od /D _DEBUG /D _CONSOLE /D _UNICODE /D UNICODE /Gm /EHsc /RTC1 /MDd /GS /fp:precise /Zc:wchar_t /Zc:forScope /Zc:inline /Fo"X64\DEBUG\\" /Fd"X64\DEBUG\VC140.PDB" /Gd /TP C:\USERS\7\GOOGLE DRIVE\SEM 2\COS30031 - GAMES PROGRAMMING\GIT\ZORKISH-V3\ZORKISH_V3\ZORKISH_V3\MOVECOMMAND.CPP
^C:\USERS\7\GOOGLE DRIVE\SEM 2\COS30031 - GAMES PROGRAMMING\GIT\ZORKISH-V3\ZORKISH_V3\ZORKISH_V3\NEWHIGHSCORE.CPP
/c /ZI /nologo /W3 /WX- /Od /D _DEBUG /D _CONSOLE /D _UNICODE /D UNICODE /Gm /EHsc /RTC1 /MDd /GS /fp:precise /Zc:wchar_t /Zc:forScope /Zc:inline /Fo"X64\DEBUG\\" /Fd"X64\DEBUG\VC140.PDB" /Gd /TP C:\USERS\7\GOOGLE DRIVE\SEM 2\COS30031 - GAMES PROGRAMMING\GIT\ZORKISH-V3\ZORKISH_V3\ZORKISH_V3\NEWHIGHSCORE.CPP
^C:\USERS\7\GOOGLE DRIVE\SEM 2\COS30031 - GAMES PROGRAMMING\GIT\ZORKISH-V3\ZORKISH_V3\ZORKISH_V3\PATH.CPP
/c /ZI /nologo /W3 /WX- /Od /D _DEBUG /D _CONSOLE /D _UNICODE /D UNICODE /Gm /EHsc /RTC1 /MDd /GS /fp:precise /Zc:wchar_t /Zc:forScope /Zc:inline /Fo"X64\DEBUG\\" /Fd"X64\DEBUG\VC140.PDB" /Gd /TP C:\USERS\7\GOOGLE DRIVE\SEM 2\COS30031 - GAMES PROGRAMMING\GIT\ZORKISH-V3\ZORKISH_V3\ZORKISH_V3\PATH.CPP
^C:\USERS\7\GOOGLE DRIVE\SEM 2\COS30031 - GAMES PROGRAMMING\GIT\ZORKISH-V3\ZORKISH_V3\ZORKISH_V3\PLAYER.CPP
/c /ZI /nologo /W3 /WX- /Od /D _DEBUG /D _CONSOLE /D _UNICODE /D UNICODE /Gm /EHsc /RTC1 /MDd /GS /fp:precise /Zc:wchar_t /Zc:forScope /Zc:inline /Fo"X64\DEBUG\\" /Fd"X64\DEBUG\VC140.PDB" /Gd /TP C:\USERS\7\GOOGLE DRIVE\SEM 2\COS30031 - GAMES PROGRAMMING\GIT\ZORKISH-V3\ZORKISH_V3\ZORKISH_V3\PLAYER.CPP
^C:\USERS\7\GOOGLE DRIVE\SEM 2\COS30031 - GAMES PROGRAMMING\GIT\ZORKISH-V3\ZORKISH_V3\ZORKISH_V3\SELECTADVENTURE.CPP
/c /ZI /nologo /W3 /WX- /Od /D _DEBUG /D _CONSOLE /D _UNICODE /D UNICODE /Gm /EHsc /RTC1 /MDd /GS /fp:precise /Zc:wchar_t /Zc:forScope /Zc:inline /Fo"X64\DEBUG\\" /Fd"X64\DEBUG\VC140.PDB" /Gd /TP C:\USERS\7\GOOGLE DRIVE\SEM 2\COS30031 - GAMES PROGRAMMING\GIT\ZORKISH-V3\ZORKISH_V3\ZORKISH_V3\SELECTADVENTURE.CPP
^C:\USERS\7\GOOGLE DRIVE\SEM 2\COS30031 - GAMES PROGRAMMING\GIT\ZORKISH-V3\ZORKISH_V3\ZORKISH_V3\STATE.CPP
/c /ZI /nologo /W3 /WX- /Od /D _DEBUG /D _CONSOLE /D _UNICODE /D UNICODE /Gm /EHsc /RTC1 /MDd /GS /fp:precise /Zc:wchar_t /Zc:forScope /Zc:inline /Fo"X64\DEBUG\\" /Fd"X64\DEBUG\VC140.PDB" /Gd /TP C:\USERS\7\GOOGLE DRIVE\SEM 2\COS30031 - GAMES PROGRAMMING\GIT\ZORKISH-V3\ZORKISH_V3\ZORKISH_V3\STATE.CPP
^C:\USERS\7\GOOGLE DRIVE\SEM 2\COS30031 - GAMES PROGRAMMING\GIT\ZORKISH-V3\ZORKISH_V3\ZORKISH_V3\TRANSFERCOMMAND.CPP
/c /ZI /nologo /W3 /WX- /Od /D _DEBUG /D _CONSOLE /D _UNICODE /D UNICODE /Gm /EHsc /RTC1 /MDd /GS /fp:precise /Zc:wchar_t /Zc:forScope /Zc:inline /Fo"X64\DEBUG\\" /Fd"X64\DEBUG\VC140.PDB" /Gd /TP C:\USERS\7\GOOGLE DRIVE\SEM 2\COS30031 - GAMES PROGRAMMING\GIT\ZORKISH-V3\ZORKISH_V3\ZORKISH_V3\TRANSFERCOMMAND.CPP
^C:\USERS\RICHARD\GOOGLE DRIVE\SEM 2\COS30031 - GAMES PROGRAMMING\GIT\ZORKISH-V3\ZORKISH_V3\ZORKISH_V3\ABOUT.CPP
/c /ZI /nologo /W3 /WX- /Od /D _DEBUG /D _CONSOLE /D _UNICODE /D UNICODE /Gm /EHsc /RTC1 /MDd /GS /fp:precise /Zc:wchar_t /Zc:forScope /Zc:inline /Fo"X64\DEBUG\\" /Fd"X64\DEBUG\VC140.PDB" /Gd /TP C:\USERS\RICHARD\GOOGLE DRIVE\SEM 2\COS30031 - GAMES PROGRAMMING\GIT\ZORKISH-V3\ZORKISH_V3\ZORKISH_V3\ABOUT.CPP
^C:\USERS\RICHARD\GOOGLE DRIVE\SEM 2\COS30031 - GAMES PROGRAMMING\GIT\ZORKISH-V3\ZORKISH_V3\ZORKISH_V3\ANNOUNCESYS.CPP
/c /ZI /nologo /W3 /WX- /Od /D _DEBUG /D _CONSOLE /D _UNICODE /D UNICODE /Gm /EHsc /RTC1 /MDd /GS /fp:precise /Zc:wchar_t /Zc:forScope /Zc:inline /Fo"X64\DEBUG\\" /Fd"X64\DEBUG\VC140.PDB" /Gd /TP C:\USERS\RICHARD\GOOGLE DRIVE\SEM 2\COS30031 - GAMES PROGRAMMING\GIT\ZORKISH-V3\ZORKISH_V3\ZORKISH_V3\ANNOUNCESYS.CPP
^C:\USERS\RICHARD\GOOGLE DRIVE\SEM 2\COS30031 - GAMES PROGRAMMING\GIT\ZORKISH-V3\ZORKISH_V3\ZORKISH_V3\BACKCOMMAND.CPP
/c /ZI /nologo /W3 /WX- /Od /D _DEBUG /D _CONSOLE /D _UNICODE /D UNICODE /Gm /EHsc /RTC1 /MDd /GS /fp:precise /Zc:wchar_t /Zc:forScope /Zc:inline /Fo"X64\DEBUG\\" /Fd"X64\DEBUG\VC140.PDB" /Gd /TP C:\USERS\RICHARD\GOOGLE DRIVE\SEM 2\COS30031 - GAMES PROGRAMMING\GIT\ZORKISH-V3\ZORKISH_V3\ZORKISH_V3\BACKCOMMAND.CPP
^C:\USERS\RICHARD\GOOGLE DRIVE\SEM 2\COS30031 - GAMES PROGRAMMING\GIT\ZORKISH-V3\ZORKISH_V3\ZORKISH_V3\BAG.CPP
/c /ZI /nologo /W3 /WX- /Od /D _DEBUG /D _CONSOLE /D _UNICODE /D UNICODE /Gm /EHsc /RTC1 /MDd /GS /fp:precise /Zc:wchar_t /Zc:forScope /Zc:inline /Fo"X64\DEBUG\\" /Fd"X64\DEBUG\VC140.PDB" /Gd /TP C:\USERS\RICHARD\GOOGLE DRIVE\SEM 2\COS30031 - GAMES PROGRAMMING\GIT\ZORKISH-V3\ZORKISH_V3\ZORKISH_V3\BAG.CPP
^C:\USERS\RICHARD\GOOGLE DRIVE\SEM 2\COS30031 - GAMES PROGRAMMING\GIT\ZORKISH-V3\ZORKISH_V3\ZORKISH_V3\CHANNEL.CPP
/c /ZI /nologo /W3 /WX- /Od /D _DEBUG /D _CONSOLE /D _UNICODE /D UNICODE /Gm /EHsc /RTC1 /MDd /GS /fp:precise /Zc:wchar_t /Zc:forScope /Zc:inline /Fo"X64\DEBUG\\" /Fd"X64\DEBUG\VC140.PDB" /Gd /TP C:\USERS\RICHARD\GOOGLE DRIVE\SEM 2\COS30031 - GAMES PROGRAMMING\GIT\ZORKISH-V3\ZORKISH_V3\ZORKISH_V3\CHANNEL.CPP
^C:\USERS\RICHARD\GOOGLE DRIVE\SEM 2\COS30031 - GAMES PROGRAMMING\GIT\ZORKISH-V3\ZORKISH_V3\ZORKISH_V3\CHECKSCORECOMMAND.CPP
/c /ZI /nologo /W3 /WX- /Od /D _DEBUG /D _CONSOLE /D _UNICODE /D UNICODE /Gm /EHsc /RTC1 /MDd /GS /fp:precise /Zc:wchar_t /Zc:forScope /Zc:inline /Fo"X64\DEBUG\\" /Fd"X64\DEBUG\VC140.PDB" /Gd /TP C:\USERS\RICHARD\GOOGLE DRIVE\SEM 2\COS30031 - GAMES PROGRAMMING\GIT\ZORKISH-V3\ZORKISH_V3\ZORKISH_V3\CHECKSCORECOMMAND.CPP
^C:\USERS\RICHARD\GOOGLE DRIVE\SEM 2\COS30031 - GAMES PROGRAMMING\GIT\ZORKISH-V3\ZORKISH_V3\ZORKISH_V3\COMMAND.CPP
/c /ZI /nologo /W3 /WX- /Od /D _DEBUG /D _CONSOLE /D _UNICODE /D UNICODE /Gm /EHsc /RTC1 /MDd /GS /fp:precise /Zc:wchar_t /Zc:forScope /Zc:inline /Fo"X64\DEBUG\\" /Fd"X64\DEBUG\VC140.PDB" /Gd /TP C:\USERS\RICHARD\GOOGLE DRIVE\SEM 2\COS30031 - GAMES PROGRAMMING\GIT\ZORKISH-V3\ZORKISH_V3\ZORKISH_V3\COMMAND.CPP
^C:\USERS\RICHARD\GOOGLE DRIVE\SEM 2\COS30031 - GAMES PROGRAMMING\GIT\ZORKISH-V3\ZORKISH_V3\ZORKISH_V3\COMMANDPROCESSOR.CPP
/c /ZI /nologo /W3 /WX- /Od /D _DEBUG /D _CONSOLE /D _UNICODE /D UNICODE /Gm /EHsc /RTC1 /MDd /GS /fp:precise /Zc:wchar_t /Zc:forScope /Zc:inline /Fo"X64\DEBUG\\" /Fd"X64\DEBUG\VC140.PDB" /Gd /TP C:\USERS\RICHARD\GOOGLE DRIVE\SEM 2\COS30031 - GAMES PROGRAMMING\GIT\ZORKISH-V3\ZORKISH_V3\ZORKISH_V3\COMMANDPROCESSOR.CPP
^C:\USERS\RICHARD\GOOGLE DRIVE\SEM 2\COS30031 - GAMES PROGRAMMING\GIT\ZORKISH-V3\ZORKISH_V3\ZORKISH_V3\CREATECOMMAND.CPP
/c /ZI /nologo /W3 /WX- /Od /D _DEBUG /D _CONSOLE /D _UNICODE /D UNICODE /Gm /EHsc /RTC1 /MDd /GS /fp:precise /Zc:wchar_t /Zc:forScope /Zc:inline /Fo"X64\DEBUG\\" /Fd"X64\DEBUG\VC140.PDB" /Gd /TP C:\USERS\RICHARD\GOOGLE DRIVE\SEM 2\COS30031 - GAMES PROGRAMMING\GIT\ZORKISH-V3\ZORKISH_V3\ZORKISH_V3\CREATECOMMAND.CPP
^C:\USERS\RICHARD\GOOGLE DRIVE\SEM 2\COS30031 - GAMES PROGRAMMING\GIT\ZORKISH-V3\ZORKISH_V3\ZORKISH_V3\GAMEOBJECT.CPP
/c /ZI /nologo /W3 /WX- /Od /D _DEBUG /D _CONSOLE /D _UNICODE /D UNICODE /Gm /EHsc /RTC1 /MDd /GS /fp:precise /Zc:wchar_t /Zc:forScope /Zc:inline /Fo"X64\DEBUG\\" /Fd"X64\DEBUG\VC140.PDB" /Gd /TP C:\USERS\RICHARD\GOOGLE DRIVE\SEM 2\COS30031 - GAMES PROGRAMMING\GIT\ZORKISH-V3\ZORKISH_V3\ZORKISH_V3\GAMEOBJECT.CPP
^C:\USERS\RICHARD\GOOGLE DRIVE\SEM 2\COS30031 - GAMES PROGRAMMING\GIT\ZORKISH-V3\ZORKISH_V3\ZORKISH_V3\GAMEPLAY.CPP
/c /ZI /nologo /W3 /WX- /Od /D _DEBUG /D _CONSOLE /D _UNICODE /D UNICODE /Gm /EHsc /RTC1 /MDd /GS /fp:precise /Zc:wchar_t /Zc:forScope /Zc:inline /Fo"X64\DEBUG\\" /Fd"X64\DEBUG\VC140.PDB" /Gd /TP C:\USERS\RICHARD\GOOGLE DRIVE\SEM 2\COS30031 - GAMES PROGRAMMING\GIT\ZORKISH-V3\ZORKISH_V3\ZORKISH_V3\GAMEPLAY.CPP
^C:\USERS\RICHARD\GOOGLE DRIVE\SEM 2\COS30031 - GAMES PROGRAMMING\GIT\ZORKISH-V3\ZORKISH_V3\ZORKISH_V3\GAMESTATEMANAGER.CPP
/c /ZI /nologo /W3 /WX- /Od /D _DEBUG /D _CONSOLE /D _UNICODE /D UNICODE /Gm /EHsc /RTC1 /MDd /GS /fp:precise /Zc:wchar_t /Zc:forScope /Zc:inline /Fo"X64\DEBUG\\" /Fd"X64\DEBUG\VC140.PDB" /Gd /TP C:\USERS\RICHARD\GOOGLE DRIVE\SEM 2\COS30031 - GAMES PROGRAMMING\GIT\ZORKISH-V3\ZORKISH_V3\ZORKISH_V3\GAMESTATEMANAGER.CPP
^C:\USERS\RICHARD\GOOGLE DRIVE\SEM 2\COS30031 - GAMES PROGRAMMING\GIT\ZORKISH-V3\ZORKISH_V3\ZORKISH_V3\HALLOFFAME.CPP
/c /ZI /nologo /W3 /WX- /Od /D _DEBUG /D _CONSOLE /D _UNICODE /D UNICODE /Gm /EHsc /RTC1 /MDd /GS /fp:precise /Zc:wchar_t /Zc:forScope /Zc:inline /Fo"X64\DEBUG\\" /Fd"X64\DEBUG\VC140.PDB" /Gd /TP C:\USERS\RICHARD\GOOGLE DRIVE\SEM 2\COS30031 - GAMES PROGRAMMING\GIT\ZORKISH-V3\ZORKISH_V3\ZORKISH_V3\HALLOFFAME.CPP
^C:\USERS\RICHARD\GOOGLE DRIVE\SEM 2\COS30031 - GAMES PROGRAMMING\GIT\ZORKISH-V3\ZORKISH_V3\ZORKISH_V3\HELP.CPP
/c /ZI /nologo /W3 /WX- /Od /D _DEBUG /D _CONSOLE /D _UNICODE /D UNICODE /Gm /EHsc /RTC1 /MDd /GS /fp:precise /Zc:wchar_t /Zc:forScope /Zc:inline /Fo"X64\DEBUG\\" /Fd"X64\DEBUG\VC140.PDB" /Gd /TP C:\USERS\RICHARD\GOOGLE DRIVE\SEM 2\COS30031 - GAMES PROGRAMMING\GIT\ZORKISH-V3\ZORKISH_V3\ZORKISH_V3\HELP.CPP
^C:\USERS\RICHARD\GOOGLE DRIVE\SEM 2\COS30031 - GAMES PROGRAMMING\GIT\ZORKISH-V3\ZORKISH_V3\ZORKISH_V3\IDENTIFIABLEOBJECT.CPP
/c /ZI /nologo /W3 /WX- /Od /D _DEBUG /D _CONSOLE /D _UNICODE /D UNICODE /Gm /EHsc /RTC1 /MDd /GS /fp:precise /Zc:wchar_t /Zc:forScope /Zc:inline /Fo"X64\DEBUG\\" /Fd"X64\DEBUG\VC140.PDB" /Gd /TP C:\USERS\RICHARD\GOOGLE DRIVE\SEM 2\COS30031 - GAMES PROGRAMMING\GIT\ZORKISH-V3\ZORKISH_V3\ZORKISH_V3\IDENTIFIABLEOBJECT.CPP
^C:\USERS\RICHARD\GOOGLE DRIVE\SEM 2\COS30031 - GAMES PROGRAMMING\GIT\ZORKISH-V3\ZORKISH_V3\ZORKISH_V3\INVENTORY.CPP
/c /ZI /nologo /W3 /WX- /Od /D _DEBUG /D _CONSOLE /D _UNICODE /D UNICODE /Gm /EHsc /RTC1 /MDd /GS /fp:precise /Zc:wchar_t /Zc:forScope /Zc:inline /Fo"X64\DEBUG\\" /Fd"X64\DEBUG\VC140.PDB" /Gd /TP C:\USERS\RICHARD\GOOGLE DRIVE\SEM 2\COS30031 - GAMES PROGRAMMING\GIT\ZORKISH-V3\ZORKISH_V3\ZORKISH_V3\INVENTORY.CPP
^C:\USERS\RICHARD\GOOGLE DRIVE\SEM 2\COS30031 - GAMES PROGRAMMING\GIT\ZORKISH-V3\ZORKISH_V3\ZORKISH_V3\ITEM.CPP
/c /ZI /nologo /W3 /WX- /Od /D _DEBUG /D _CONSOLE /D _UNICODE /D UNICODE /Gm /EHsc /RTC1 /MDd /GS /fp:precise /Zc:wchar_t /Zc:forScope /Zc:inline /Fo"X64\DEBUG\\" /Fd"X64\DEBUG\VC140.PDB" /Gd /TP C:\USERS\RICHARD\GOOGLE DRIVE\SEM 2\COS30031 - GAMES PROGRAMMING\GIT\ZORKISH-V3\ZORKISH_V3\ZORKISH_V3\ITEM.CPP
^C:\USERS\RICHARD\GOOGLE DRIVE\SEM 2\COS30031 - GAMES PROGRAMMING\GIT\ZORKISH-V3\ZORKISH_V3\ZORKISH_V3\LOCATION.CPP
/c /ZI /nologo /W3 /WX- /Od /D _DEBUG /D _CONSOLE /D _UNICODE /D UNICODE /Gm /EHsc /RTC1 /MDd /GS /fp:precise /Zc:wchar_t /Zc:forScope /Zc:inline /Fo"X64\DEBUG\\" /Fd"X64\DEBUG\VC140.PDB" /Gd /TP C:\USERS\RICHARD\GOOGLE DRIVE\SEM 2\COS30031 - GAMES PROGRAMMING\GIT\ZORKISH-V3\ZORKISH_V3\ZORKISH_V3\LOCATION.CPP
^C:\USERS\RICHARD\GOOGLE DRIVE\SEM 2\COS30031 - GAMES PROGRAMMING\GIT\ZORKISH-V3\ZORKISH_V3\ZORKISH_V3\LOOKCOMMAND.CPP
/c /ZI /nologo /W3 /WX- /Od /D _DEBUG /D _CONSOLE /D _UNICODE /D UNICODE /Gm /EHsc /RTC1 /MDd /GS /fp:precise /Zc:wchar_t /Zc:forScope /Zc:inline /Fo"X64\DEBUG\\" /Fd"X64\DEBUG\VC140.PDB" /Gd /TP C:\USERS\RICHARD\GOOGLE DRIVE\SEM 2\COS30031 - GAMES PROGRAMMING\GIT\ZORKISH-V3\ZORKISH_V3\ZORKISH_V3\LOOKCOMMAND.CPP
^C:\USERS\RICHARD\GOOGLE DRIVE\SEM 2\COS30031 - GAMES PROGRAMMING\GIT\ZORKISH-V3\ZORKISH_V3\ZORKISH_V3\MAIN.CPP
/c /ZI /nologo /W3 /WX- /Od /D _DEBUG /D _CONSOLE /D _UNICODE /D UNICODE /Gm /EHsc /RTC1 /MDd /GS /fp:precise /Zc:wchar_t /Zc:forScope /Zc:inline /Fo"X64\DEBUG\\" /Fd"X64\DEBUG\VC140.PDB" /Gd /TP C:\USERS\RICHARD\GOOGLE DRIVE\SEM 2\COS30031 - GAMES PROGRAMMING\GIT\ZORKISH-V3\ZORKISH_V3\ZORKISH_V3\MAIN.CPP
^C:\USERS\RICHARD\GOOGLE DRIVE\SEM 2\COS30031 - GAMES PROGRAMMING\GIT\ZORKISH-V3\ZORKISH_V3\ZORKISH_V3\MAINMENU.CPP
/c /ZI /nologo /W3 /WX- /Od /D _DEBUG /D _CONSOLE /D _UNICODE /D UNICODE /Gm /EHsc /RTC1 /MDd /GS /fp:precise /Zc:wchar_t /Zc:forScope /Zc:inline /Fo"X64\DEBUG\\" /Fd"X64\DEBUG\VC140.PDB" /Gd /TP C:\USERS\RICHARD\GOOGLE DRIVE\SEM 2\COS30031 - GAMES PROGRAMMING\GIT\ZORKISH-V3\ZORKISH_V3\ZORKISH_V3\MAINMENU.CPP
^C:\USERS\RICHARD\GOOGLE DRIVE\SEM 2\COS30031 - GAMES PROGRAMMING\GIT\ZORKISH-V3\ZORKISH_V3\ZORKISH_V3\MESSAGE.CPP
/c /ZI /nologo /W3 /WX- /Od /D _DEBUG /D _CONSOLE /D _UNICODE /D UNICODE /Gm /EHsc /RTC1 /MDd /GS /fp:precise /Zc:wchar_t /Zc:forScope /Zc:inline /Fo"X64\DEBUG\\" /Fd"X64\DEBUG\VC140.PDB" /Gd /TP C:\USERS\RICHARD\GOOGLE DRIVE\SEM 2\COS30031 - GAMES PROGRAMMING\GIT\ZORKISH-V3\ZORKISH_V3\ZORKISH_V3\MESSAGE.CPP
^C:\USERS\RICHARD\GOOGLE DRIVE\SEM 2\COS30031 - GAMES PROGRAMMING\GIT\ZORKISH-V3\ZORKISH_V3\ZORKISH_V3\MESSAGECENTRE.CPP
/c /ZI /nologo /W3 /WX- /Od /D _DEBUG /D _CONSOLE /D _UNICODE /D UNICODE /Gm /EHsc /RTC1 /MDd /GS /fp:precise /Zc:wchar_t /Zc:forScope /Zc:inline /Fo"X64\DEBUG\\" /Fd"X64\DEBUG\VC140.PDB" /Gd /TP C:\USERS\RICHARD\GOOGLE DRIVE\SEM 2\COS30031 - GAMES PROGRAMMING\GIT\ZORKISH-V3\ZORKISH_V3\ZORKISH_V3\MESSAGECENTRE.CPP
^C:\USERS\RICHARD\GOOGLE DRIVE\SEM 2\COS30031 - GAMES PROGRAMMING\GIT\ZORKISH-V3\ZORKISH_V3\ZORKISH_V3\MOVECOMMAND.CPP
/c /ZI /nologo /W3 /WX- /Od /D _DEBUG /D _CONSOLE /D _UNICODE /D UNICODE /Gm /EHsc /RTC1 /MDd /GS /fp:precise /Zc:wchar_t /Zc:forScope /Zc:inline /Fo"X64\DEBUG\\" /Fd"X64\DEBUG\VC140.PDB" /Gd /TP C:\USERS\RICHARD\GOOGLE DRIVE\SEM 2\COS30031 - GAMES PROGRAMMING\GIT\ZORKISH-V3\ZORKISH_V3\ZORKISH_V3\MOVECOMMAND.CPP
^C:\USERS\RICHARD\GOOGLE DRIVE\SEM 2\COS30031 - GAMES PROGRAMMING\GIT\ZORKISH-V3\ZORKISH_V3\ZORKISH_V3\NEWHIGHSCORE.CPP
/c /ZI /nologo /W3 /WX- /Od /D _DEBUG /D _CONSOLE /D _UNICODE /D UNICODE /Gm /EHsc /RTC1 /MDd /GS /fp:precise /Zc:wchar_t /Zc:forScope /Zc:inline /Fo"X64\DEBUG\\" /Fd"X64\DEBUG\VC140.PDB" /Gd /TP C:\USERS\RICHARD\GOOGLE DRIVE\SEM 2\COS30031 - GAMES PROGRAMMING\GIT\ZORKISH-V3\ZORKISH_V3\ZORKISH_V3\NEWHIGHSCORE.CPP
^C:\USERS\RICHARD\GOOGLE DRIVE\SEM 2\COS30031 - GAMES PROGRAMMING\GIT\ZORKISH-V3\ZORKISH_V3\ZORKISH_V3\PATH.CPP
/c /ZI /nologo /W3 /WX- /Od /D _DEBUG /D _CONSOLE /D _UNICODE /D UNICODE /Gm /EHsc /RTC1 /MDd /GS /fp:precise /Zc:wchar_t /Zc:forScope /Zc:inline /Fo"X64\DEBUG\\" /Fd"X64\DEBUG\VC140.PDB" /Gd /TP C:\USERS\RICHARD\GOOGLE DRIVE\SEM 2\COS30031 - GAMES PROGRAMMING\GIT\ZORKISH-V3\ZORKISH_V3\ZORKISH_V3\PATH.CPP
^C:\USERS\RICHARD\GOOGLE DRIVE\SEM 2\COS30031 - GAMES PROGRAMMING\GIT\ZORKISH-V3\ZORKISH_V3\ZORKISH_V3\PLAYER.CPP
/c /ZI /nologo /W3 /WX- /Od /D _DEBUG /D _CONSOLE /D _UNICODE /D UNICODE /Gm /EHsc /RTC1 /MDd /GS /fp:precise /Zc:wchar_t /Zc:forScope /Zc:inline /Fo"X64\DEBUG\\" /Fd"X64\DEBUG\VC140.PDB" /Gd /TP C:\USERS\RICHARD\GOOGLE DRIVE\SEM 2\COS30031 - GAMES PROGRAMMING\GIT\ZORKISH-V3\ZORKISH_V3\ZORKISH_V3\PLAYER.CPP
^C:\USERS\RICHARD\GOOGLE DRIVE\SEM 2\COS30031 - GAMES PROGRAMMING\GIT\ZORKISH-V3\ZORKISH_V3\ZORKISH_V3\SELECTADVENTURE.CPP
/c /ZI /nologo /W3 /WX- /Od /D _DEBUG /D _CONSOLE /D _UNICODE /D UNICODE /Gm /EHsc /RTC1 /MDd /GS /fp:precise /Zc:wchar_t /Zc:forScope /Zc:inline /Fo"X64\DEBUG\\" /Fd"X64\DEBUG\VC140.PDB" /Gd /TP C:\USERS\RICHARD\GOOGLE DRIVE\SEM 2\COS30031 - GAMES PROGRAMMING\GIT\ZORKISH-V3\ZORKISH_V3\ZORKISH_V3\SELECTADVENTURE.CPP
^C:\USERS\RICHARD\GOOGLE DRIVE\SEM 2\COS30031 - GAMES PROGRAMMING\GIT\ZORKISH-V3\ZORKISH_V3\ZORKISH_V3\STATE.CPP
/c /ZI /nologo /W3 /WX- /Od /D _DEBUG /D _CONSOLE /D _UNICODE /D UNICODE /Gm /EHsc /RTC1 /MDd /GS /fp:precise /Zc:wchar_t /Zc:forScope /Zc:inline /Fo"X64\DEBUG\\" /Fd"X64\DEBUG\VC140.PDB" /Gd /TP C:\USERS\RICHARD\GOOGLE DRIVE\SEM 2\COS30031 - GAMES PROGRAMMING\GIT\ZORKISH-V3\ZORKISH_V3\ZORKISH_V3\STATE.CPP
^C:\USERS\RICHARD\GOOGLE DRIVE\SEM 2\COS30031 - GAMES PROGRAMMING\GIT\ZORKISH-V3\ZORKISH_V3\ZORKISH_V3\TRANSFERCOMMAND.CPP
/c /ZI /nologo /W3 /WX- /Od /D _DEBUG /D _CONSOLE /D _UNICODE /D UNICODE /Gm /EHsc /RTC1 /MDd /GS /fp:precise /Zc:wchar_t /Zc:forScope /Zc:inline /Fo"X64\DEBUG\\" /Fd"X64\DEBUG\VC140.PDB" /Gd /TP C:\USERS\RICHARD\GOOGLE DRIVE\SEM 2\COS30031 - GAMES PROGRAMMING\GIT\ZORKISH-V3\ZORKISH_V3\ZORKISH_V3\TRANSFERCOMMAND.CPP
^C:\USERS\ROBERT\DOCUMENTS\UNI\GAMES PROGRAMMING (COS30031)\ZORKISH V3\ZORKISH-V3\ZORKISH_V3\ZORKISH_V3\ABOUT.CPP
/c /ZI /nologo /W3 /WX- /Od /D _DEBUG /D _CONSOLE /D _UNICODE /D UNICODE /Gm /EHsc /RTC1 /MDd /GS /fp:precise /Zc:wchar_t /Zc:forScope /Zc:inline /Fo"X64\DEBUG\\" /Fd"X64\DEBUG\VC140.PDB" /Gd /TP C:\USERS\ROBERT\DOCUMENTS\UNI\GAMES PROGRAMMING (COS30031)\ZORKISH V3\ZORKISH-V3\ZORKISH_V3\ZORKISH_V3\ABOUT.CPP
^C:\USERS\ROBERT\DOCUMENTS\UNI\GAMES PROGRAMMING (COS30031)\ZORKISH V3\ZORKISH-V3\ZORKISH_V3\ZORKISH_V3\ANNOUNCESYS.CPP
/c /ZI /nologo /W3 /WX- /Od /D _DEBUG /D _CONSOLE /D _UNICODE /D UNICODE /Gm /EHsc /RTC1 /MDd /GS /fp:precise /Zc:wchar_t /Zc:forScope /Zc:inline /Fo"X64\DEBUG\\" /Fd"X64\DEBUG\VC140.PDB" /Gd /TP C:\USERS\ROBERT\DOCUMENTS\UNI\GAMES PROGRAMMING (COS30031)\ZORKISH V3\ZORKISH-V3\ZORKISH_V3\ZORKISH_V3\ANNOUNCESYS.CPP
^C:\USERS\ROBERT\DOCUMENTS\UNI\GAMES PROGRAMMING (COS30031)\ZORKISH V3\ZORKISH-V3\ZORKISH_V3\ZORKISH_V3\BACKCOMMAND.CPP
/c /ZI /nologo /W3 /WX- /Od /D _DEBUG /D _CONSOLE /D _UNICODE /D UNICODE /Gm /EHsc /RTC1 /MDd /GS /fp:precise /Zc:wchar_t /Zc:forScope /Zc:inline /Fo"X64\DEBUG\\" /Fd"X64\DEBUG\VC140.PDB" /Gd /TP C:\USERS\ROBERT\DOCUMENTS\UNI\GAMES PROGRAMMING (COS30031)\ZORKISH V3\ZORKISH-V3\ZORKISH_V3\ZORKISH_V3\BACKCOMMAND.CPP
^C:\USERS\ROBERT\DOCUMENTS\UNI\GAMES PROGRAMMING (COS30031)\ZORKISH V3\ZORKISH-V3\ZORKISH_V3\ZORKISH_V3\BAG.CPP
/c /ZI /nologo /W3 /WX- /Od /D _DEBUG /D _CONSOLE /D _UNICODE /D UNICODE /Gm /EHsc /RTC1 /MDd /GS /fp:precise /Zc:wchar_t /Zc:forScope /Zc:inline /Fo"X64\DEBUG\\" /Fd"X64\DEBUG\VC140.PDB" /Gd /TP C:\USERS\ROBERT\DOCUMENTS\UNI\GAMES PROGRAMMING (COS30031)\ZORKISH V3\ZORKISH-V3\ZORKISH_V3\ZORKISH_V3\BAG.CPP
^C:\USERS\ROBERT\DOCUMENTS\UNI\GAMES PROGRAMMING (COS30031)\ZORKISH V3\ZORKISH-V3\ZORKISH_V3\ZORKISH_V3\CHANNEL.CPP
/c /ZI /nologo /W3 /WX- /Od /D _DEBUG /D _CONSOLE /D _UNICODE /D UNICODE /Gm /EHsc /RTC1 /MDd /GS /fp:precise /Zc:wchar_t /Zc:forScope /Zc:inline /Fo"X64\DEBUG\\" /Fd"X64\DEBUG\VC140.PDB" /Gd /TP C:\USERS\ROBERT\DOCUMENTS\UNI\GAMES PROGRAMMING (COS30031)\ZORKISH V3\ZORKISH-V3\ZORKISH_V3\ZORKISH_V3\CHANNEL.CPP
^C:\USERS\ROBERT\DOCUMENTS\UNI\GAMES PROGRAMMING (COS30031)\ZORKISH V3\ZORKISH-V3\ZORKISH_V3\ZORKISH_V3\CHECKSCORECOMMAND.CPP
/c /ZI /nologo /W3 /WX- /Od /D _DEBUG /D _CONSOLE /D _UNICODE /D UNICODE /Gm /EHsc /RTC1 /MDd /GS /fp:precise /Zc:wchar_t /Zc:forScope /Zc:inline /Fo"X64\DEBUG\\" /Fd"X64\DEBUG\VC140.PDB" /Gd /TP C:\USERS\ROBERT\DOCUMENTS\UNI\GAMES PROGRAMMING (COS30031)\ZORKISH V3\ZORKISH-V3\ZORKISH_V3\ZORKISH_V3\CHECKSCORECOMMAND.CPP
^C:\USERS\ROBERT\DOCUMENTS\UNI\GAMES PROGRAMMING (COS30031)\ZORKISH V3\ZORKISH-V3\ZORKISH_V3\ZORKISH_V3\COMMAND.CPP
/c /ZI /nologo /W3 /WX- /Od /D _DEBUG /D _CONSOLE /D _UNICODE /D UNICODE /Gm /EHsc /RTC1 /MDd /GS /fp:precise /Zc:wchar_t /Zc:forScope /Zc:inline /Fo"X64\DEBUG\\" /Fd"X64\DEBUG\VC140.PDB" /Gd /TP C:\USERS\ROBERT\DOCUMENTS\UNI\GAMES PROGRAMMING (COS30031)\ZORKISH V3\ZORKISH-V3\ZORKISH_V3\ZORKISH_V3\COMMAND.CPP
^C:\USERS\ROBERT\DOCUMENTS\UNI\GAMES PROGRAMMING (COS30031)\ZORKISH V3\ZORKISH-V3\ZORKISH_V3\ZORKISH_V3\COMMANDPROCESSOR.CPP
/c /ZI /nologo /W3 /WX- /Od /D _DEBUG /D _CONSOLE /D _UNICODE /D UNICODE /Gm /EHsc /RTC1 /MDd /GS /fp:precise /Zc:wchar_t /Zc:forScope /Zc:inline /Fo"X64\DEBUG\\" /Fd"X64\DEBUG\VC140.PDB" /Gd /TP C:\USERS\ROBERT\DOCUMENTS\UNI\GAMES PROGRAMMING (COS30031)\ZORKISH V3\ZORKISH-V3\ZORKISH_V3\ZORKISH_V3\COMMANDPROCESSOR.CPP
^C:\USERS\ROBERT\DOCUMENTS\UNI\GAMES PROGRAMMING (COS30031)\ZORKISH V3\ZORKISH-V3\ZORKISH_V3\ZORKISH_V3\CREATECOMMAND.CPP
/c /ZI /nologo /W3 /WX- /Od /D _DEBUG /D _CONSOLE /D _UNICODE /D UNICODE /Gm /EHsc /RTC1 /MDd /GS /fp:precise /Zc:wchar_t /Zc:forScope /Zc:inline /Fo"X64\DEBUG\\" /Fd"X64\DEBUG\VC140.PDB" /Gd /TP C:\USERS\ROBERT\DOCUMENTS\UNI\GAMES PROGRAMMING (COS30031)\ZORKISH V3\ZORKISH-V3\ZORKISH_V3\ZORKISH_V3\CREATECOMMAND.CPP
^C:\USERS\ROBERT\DOCUMENTS\UNI\GAMES PROGRAMMING (COS30031)\ZORKISH V3\ZORKISH-V3\ZORKISH_V3\ZORKISH_V3\GAMEOBJECT.CPP
/c /ZI /nologo /W3 /WX- /Od /D _DEBUG /D _CONSOLE /D _UNICODE /D UNICODE /Gm /EHsc /RTC1 /MDd /GS /fp:precise /Zc:wchar_t /Zc:forScope /Zc:inline /Fo"X64\DEBUG\\" /Fd"X64\DEBUG\VC140.PDB" /Gd /TP C:\USERS\ROBERT\DOCUMENTS\UNI\GAMES PROGRAMMING (COS30031)\ZORKISH V3\ZORKISH-V3\ZORKISH_V3\ZORKISH_V3\GAMEOBJECT.CPP
^C:\USERS\ROBERT\DOCUMENTS\UNI\GAMES PROGRAMMING (COS30031)\ZORKISH V3\ZORKISH-V3\ZORKISH_V3\ZORKISH_V3\GAMEPLAY.CPP
/c /ZI /nologo /W3 /WX- /Od /D _DEBUG /D _CONSOLE /D _UNICODE /D UNICODE /Gm /EHsc /RTC1 /MDd /GS /fp:precise /Zc:wchar_t /Zc:forScope /Zc:inline /Fo"X64\DEBUG\\" /Fd"X64\DEBUG\VC140.PDB" /Gd /TP C:\USERS\ROBERT\DOCUMENTS\UNI\GAMES PROGRAMMING (COS30031)\ZORKISH V3\ZORKISH-V3\ZORKISH_V3\ZORKISH_V3\GAMEPLAY.CPP
^C:\USERS\ROBERT\DOCUMENTS\UNI\GAMES PROGRAMMING (COS30031)\ZORKISH V3\ZORKISH-V3\ZORKISH_V3\ZORKISH_V3\GAMESTATEMANAGER.CPP
/c /ZI /nologo /W3 /WX- /Od /D _DEBUG /D _CONSOLE /D _UNICODE /D UNICODE /Gm /EHsc /RTC1 /MDd /GS /fp:precise /Zc:wchar_t /Zc:forScope /Zc:inline /Fo"X64\DEBUG\\" /Fd"X64\DEBUG\VC140.PDB" /Gd /TP C:\USERS\ROBERT\DOCUMENTS\UNI\GAMES PROGRAMMING (COS30031)\ZORKISH V3\ZORKISH-V3\ZORKISH_V3\ZORKISH_V3\GAMESTATEMANAGER.CPP
^C:\USERS\ROBERT\DOCUMENTS\UNI\GAMES PROGRAMMING (COS30031)\ZORKISH V3\ZORKISH-V3\ZORKISH_V3\ZORKISH_V3\HALLOFFAME.CPP
/c /ZI /nologo /W3 /WX- /Od /D _DEBUG /D _CONSOLE /D _UNICODE /D UNICODE /Gm /EHsc /RTC1 /MDd /GS /fp:precise /Zc:wchar_t /Zc:forScope /Zc:inline /Fo"X64\DEBUG\\" /Fd"X64\DEBUG\VC140.PDB" /Gd /TP C:\USERS\ROBERT\DOCUMENTS\UNI\GAMES PROGRAMMING (COS30031)\ZORKISH V3\ZORKISH-V3\ZORKISH_V3\ZORKISH_V3\HALLOFFAME.CPP
^C:\USERS\ROBERT\DOCUMENTS\UNI\GAMES PROGRAMMING (COS30031)\ZORKISH V3\ZORKISH-V3\ZORKISH_V3\ZORKISH_V3\HELP.CPP
/c /ZI /nologo /W3 /WX- /Od /D _DEBUG /D _CONSOLE /D _UNICODE /D UNICODE /Gm /EHsc /RTC1 /MDd /GS /fp:precise /Zc:wchar_t /Zc:forScope /Zc:inline /Fo"X64\DEBUG\\" /Fd"X64\DEBUG\VC140.PDB" /Gd /TP C:\USERS\ROBERT\DOCUMENTS\UNI\GAMES PROGRAMMING (COS30031)\ZORKISH V3\ZORKISH-V3\ZORKISH_V3\ZORKISH_V3\HELP.CPP
^C:\USERS\ROBERT\DOCUMENTS\UNI\GAMES PROGRAMMING (COS30031)\ZORKISH V3\ZORKISH-V3\ZORKISH_V3\ZORKISH_V3\IDENTIFIABLEOBJECT.CPP
/c /ZI /nologo /W3 /WX- /Od /D _DEBUG /D _CONSOLE /D _UNICODE /D UNICODE /Gm /EHsc /RTC1 /MDd /GS /fp:precise /Zc:wchar_t /Zc:forScope /Zc:inline /Fo"X64\DEBUG\\" /Fd"X64\DEBUG\VC140.PDB" /Gd /TP C:\USERS\ROBERT\DOCUMENTS\UNI\GAMES PROGRAMMING (COS30031)\ZORKISH V3\ZORKISH-V3\ZORKISH_V3\ZORKISH_V3\IDENTIFIABLEOBJECT.CPP
^C:\USERS\ROBERT\DOCUMENTS\UNI\GAMES PROGRAMMING (COS30031)\ZORKISH V3\ZORKISH-V3\ZORKISH_V3\ZORKISH_V3\INVENTORY.CPP
/c /ZI /nologo /W3 /WX- /Od /D _DEBUG /D _CONSOLE /D _UNICODE /D UNICODE /Gm /EHsc /RTC1 /MDd /GS /fp:precise /Zc:wchar_t /Zc:forScope /Zc:inline /Fo"X64\DEBUG\\" /Fd"X64\DEBUG\VC140.PDB" /Gd /TP C:\USERS\ROBERT\DOCUMENTS\UNI\GAMES PROGRAMMING (COS30031)\ZORKISH V3\ZORKISH-V3\ZORKISH_V3\ZORKISH_V3\INVENTORY.CPP
^C:\USERS\ROBERT\DOCUMENTS\UNI\GAMES PROGRAMMING (COS30031)\ZORKISH V3\ZORKISH-V3\ZORKISH_V3\ZORKISH_V3\ITEM.CPP
/c /ZI /nologo /W3 /WX- /Od /D _DEBUG /D _CONSOLE /D _UNICODE /D UNICODE /Gm /EHsc /RTC1 /MDd /GS /fp:precise /Zc:wchar_t /Zc:forScope /Zc:inline /Fo"X64\DEBUG\\" /Fd"X64\DEBUG\VC140.PDB" /Gd /TP C:\USERS\ROBERT\DOCUMENTS\UNI\GAMES PROGRAMMING (COS30031)\ZORKISH V3\ZORKISH-V3\ZORKISH_V3\ZORKISH_V3\ITEM.CPP
^C:\USERS\ROBERT\DOCUMENTS\UNI\GAMES PROGRAMMING (COS30031)\ZORKISH V3\ZORKISH-V3\ZORKISH_V3\ZORKISH_V3\LOCATION.CPP
/c /ZI /nologo /W3 /WX- /Od /D _DEBUG /D _CONSOLE /D _UNICODE /D UNICODE /Gm /EHsc /RTC1 /MDd /GS /fp:precise /Zc:wchar_t /Zc:forScope /Zc:inline /Fo"X64\DEBUG\\" /Fd"X64\DEBUG\VC140.PDB" /Gd /TP C:\USERS\ROBERT\DOCUMENTS\UNI\GAMES PROGRAMMING (COS30031)\ZORKISH V3\ZORKISH-V3\ZORKISH_V3\ZORKISH_V3\LOCATION.CPP
^C:\USERS\ROBERT\DOCUMENTS\UNI\GAMES PROGRAMMING (COS30031)\ZORKISH V3\ZORKISH-V3\ZORKISH_V3\ZORKISH_V3\LOOKCOMMAND.CPP
/c /ZI /nologo /W3 /WX- /Od /D _DEBUG /D _CONSOLE /D _UNICODE /D UNICODE /Gm /EHsc /RTC1 /MDd /GS /fp:precise /Zc:wchar_t /Zc:forScope /Zc:inline /Fo"X64\DEBUG\\" /Fd"X64\DEBUG\VC140.PDB" /Gd /TP C:\USERS\ROBERT\DOCUMENTS\UNI\GAMES PROGRAMMING (COS30031)\ZORKISH V3\ZORKISH-V3\ZORKISH_V3\ZORKISH_V3\LOOKCOMMAND.CPP
^C:\USERS\ROBERT\DOCUMENTS\UNI\GAMES PROGRAMMING (COS30031)\ZORKISH V3\ZORKISH-V3\ZORKISH_V3\ZORKISH_V3\MAIN.CPP
/c /ZI /nologo /W3 /WX- /Od /D _DEBUG /D _CONSOLE /D _UNICODE /D UNICODE /Gm /EHsc /RTC1 /MDd /GS /fp:precise /Zc:wchar_t /Zc:forScope /Zc:inline /Fo"X64\DEBUG\\" /Fd"X64\DEBUG\VC140.PDB" /Gd /TP C:\USERS\ROBERT\DOCUMENTS\UNI\GAMES PROGRAMMING (COS30031)\ZORKISH V3\ZORKISH-V3\ZORKISH_V3\ZORKISH_V3\MAIN.CPP
^C:\USERS\ROBERT\DOCUMENTS\UNI\GAMES PROGRAMMING (COS30031)\ZORKISH V3\ZORKISH-V3\ZORKISH_V3\ZORKISH_V3\MAINMENU.CPP
/c /ZI /nologo /W3 /WX- /Od /D _DEBUG /D _CONSOLE /D _UNICODE /D UNICODE /Gm /EHsc /RTC1 /MDd /GS /fp:precise /Zc:wchar_t /Zc:forScope /Zc:inline /Fo"X64\DEBUG\\" /Fd"X64\DEBUG\VC140.PDB" /Gd /TP C:\USERS\ROBERT\DOCUMENTS\UNI\GAMES PROGRAMMING (COS30031)\ZORKISH V3\ZORKISH-V3\ZORKISH_V3\ZORKISH_V3\MAINMENU.CPP
^C:\USERS\ROBERT\DOCUMENTS\UNI\GAMES PROGRAMMING (COS30031)\ZORKISH V3\ZORKISH-V3\ZORKISH_V3\ZORKISH_V3\MESSAGE.CPP
/c /ZI /nologo /W3 /WX- /Od /D _DEBUG /D _CONSOLE /D _UNICODE /D UNICODE /Gm /EHsc /RTC1 /MDd /GS /fp:precise /Zc:wchar_t /Zc:forScope /Zc:inline /Fo"X64\DEBUG\\" /Fd"X64\DEBUG\VC140.PDB" /Gd /TP C:\USERS\ROBERT\DOCUMENTS\UNI\GAMES PROGRAMMING (COS30031)\ZORKISH V3\ZORKISH-V3\ZORKISH_V3\ZORKISH_V3\MESSAGE.CPP
^C:\USERS\ROBERT\DOCUMENTS\UNI\GAMES PROGRAMMING (COS30031)\ZORKISH V3\ZORKISH-V3\ZORKISH_V3\ZORKISH_V3\MESSAGECENTRE.CPP
/c /ZI /nologo /W3 /WX- /Od /D _DEBUG /D _CONSOLE /D _UNICODE /D UNICODE /Gm /EHsc /RTC1 /MDd /GS /fp:precise /Zc:wchar_t /Zc:forScope /Zc:inline /Fo"X64\DEBUG\\" /Fd"X64\DEBUG\VC140.PDB" /Gd /TP C:\USERS\ROBERT\DOCUMENTS\UNI\GAMES PROGRAMMING (COS30031)\ZORKISH V3\ZORKISH-V3\ZORKISH_V3\ZORKISH_V3\MESSAGECENTRE.CPP
^C:\USERS\ROBERT\DOCUMENTS\UNI\GAMES PROGRAMMING (COS30031)\ZORKISH V3\ZORKISH-V3\ZORKISH_V3\ZORKISH_V3\MOVECOMMAND.CPP
/c /ZI /nologo /W3 /WX- /Od /D _DEBUG /D _CONSOLE /D _UNICODE /D UNICODE /Gm /EHsc /RTC1 /MDd /GS /fp:precise /Zc:wchar_t /Zc:forScope /Zc:inline /Fo"X64\DEBUG\\" /Fd"X64\DEBUG\VC140.PDB" /Gd /TP C:\USERS\ROBERT\DOCUMENTS\UNI\GAMES PROGRAMMING (COS30031)\ZORKISH V3\ZORKISH-V3\ZORKISH_V3\ZORKISH_V3\MOVECOMMAND.CPP
^C:\USERS\ROBERT\DOCUMENTS\UNI\GAMES PROGRAMMING (COS30031)\ZORKISH V3\ZORKISH-V3\ZORKISH_V3\ZORKISH_V3\NEWHIGHSCORE.CPP
/c /ZI /nologo /W3 /WX- /Od /D _DEBUG /D _CONSOLE /D _UNICODE /D UNICODE /Gm /EHsc /RTC1 /MDd /GS /fp:precise /Zc:wchar_t /Zc:forScope /Zc:inline /Fo"X64\DEBUG\\" /Fd"X64\DEBUG\VC140.PDB" /Gd /TP C:\USERS\ROBERT\DOCUMENTS\UNI\GAMES PROGRAMMING (COS30031)\ZORKISH V3\ZORKISH-V3\ZORKISH_V3\ZORKISH_V3\NEWHIGHSCORE.CPP
^C:\USERS\ROBERT\DOCUMENTS\UNI\GAMES PROGRAMMING (COS30031)\ZORKISH V3\ZORKISH-V3\ZORKISH_V3\ZORKISH_V3\PATH.CPP
/c /ZI /nologo /W3 /WX- /Od /D _DEBUG /D _CONSOLE /D _UNICODE /D UNICODE /Gm /EHsc /RTC1 /MDd /GS /fp:precise /Zc:wchar_t /Zc:forScope /Zc:inline /Fo"X64\DEBUG\\" /Fd"X64\DEBUG\VC140.PDB" /Gd /TP C:\USERS\ROBERT\DOCUMENTS\UNI\GAMES PROGRAMMING (COS30031)\ZORKISH V3\ZORKISH-V3\ZORKISH_V3\ZORKISH_V3\PATH.CPP
^C:\USERS\ROBERT\DOCUMENTS\UNI\GAMES PROGRAMMING (COS30031)\ZORKISH V3\ZORKISH-V3\ZORKISH_V3\ZORKISH_V3\PLAYER.CPP
/c /ZI /nologo /W3 /WX- /Od /D _DEBUG /D _CONSOLE /D _UNICODE /D UNICODE /Gm /EHsc /RTC1 /MDd /GS /fp:precise /Zc:wchar_t /Zc:forScope /Zc:inline /Fo"X64\DEBUG\\" /Fd"X64\DEBUG\VC140.PDB" /Gd /TP C:\USERS\ROBERT\DOCUMENTS\UNI\GAMES PROGRAMMING (COS30031)\ZORKISH V3\ZORKISH-V3\ZORKISH_V3\ZORKISH_V3\PLAYER.CPP
^C:\USERS\ROBERT\DOCUMENTS\UNI\GAMES PROGRAMMING (COS30031)\ZORKISH V3\ZORKISH-V3\ZORKISH_V3\ZORKISH_V3\SELECTADVENTURE.CPP
/c /ZI /nologo /W3 /WX- /Od /D _DEBUG /D _CONSOLE /D _UNICODE /D UNICODE /Gm /EHsc /RTC1 /MDd /GS /fp:precise /Zc:wchar_t /Zc:forScope /Zc:inline /Fo"X64\DEBUG\\" /Fd"X64\DEBUG\VC140.PDB" /Gd /TP C:\USERS\ROBERT\DOCUMENTS\UNI\GAMES PROGRAMMING (COS30031)\ZORKISH V3\ZORKISH-V3\ZORKISH_V3\ZORKISH_V3\SELECTADVENTURE.CPP
^C:\USERS\ROBERT\DOCUMENTS\UNI\GAMES PROGRAMMING (COS30031)\ZORKISH V3\ZORKISH-V3\ZORKISH_V3\ZORKISH_V3\STATE.CPP
/c /ZI /nologo /W3 /WX- /Od /D _DEBUG /D _CONSOLE /D _UNICODE /D UNICODE /Gm /EHsc /RTC1 /MDd /GS /fp:precise /Zc:wchar_t /Zc:forScope /Zc:inline /Fo"X64\DEBUG\\" /Fd"X64\DEBUG\VC140.PDB" /Gd /TP C:\USERS\ROBERT\DOCUMENTS\UNI\GAMES PROGRAMMING (COS30031)\ZORKISH V3\ZORKISH-V3\ZORKISH_V3\ZORKISH_V3\STATE.CPP
^C:\USERS\ROBERT\DOCUMENTS\UNI\GAMES PROGRAMMING (COS30031)\ZORKISH V3\ZORKISH-V3\ZORKISH_V3\ZORKISH_V3\TRANSFERCOMMAND.CPP
/c /ZI /nologo /W3 /WX- /Od /D _DEBUG /D _CONSOLE /D _UNICODE /D UNICODE /Gm /EHsc /RTC1 /MDd /GS /fp:precise /Zc:wchar_t /Zc:forScope /Zc:inline /Fo"X64\DEBUG\\" /Fd"X64\DEBUG\VC140.PDB" /Gd /TP C:\USERS\ROBERT\DOCUMENTS\UNI\GAMES PROGRAMMING (COS30031)\ZORKISH V3\ZORKISH-V3\ZORKISH_V3\ZORKISH_V3\TRANSFERCOMMAND.CPP
