^C:\USERS\7\GOOGLE DRIVE\SEM 2\COS30031 - GAMES PROGRAMMING\GIT\ZORKISH-V3\ZORKISH_V3\ZORKISH_V3\BAG.CPP|C:\USERS\7\GOOGLE DRIVE\SEM 2\COS30031 - GAMES PROGRAMMING\GIT\ZORKISH-V3\ZORKISH_V3\ZORKISH_V3\COMMAND.CPP|C:\USERS\7\GOOGLE DRIVE\SEM 2\COS30031 - GAMES PROGRAMMING\GIT\ZORKISH-V3\ZORKISH_V3\ZORKISH_V3\GAMEOBJECT.CPP
^C:\USERS\ROBERT\DOCUMENTS\UNI\GAMES PROGRAMMING (COS30031)\ZORKISH V3\ZORKISH-V3\ZORKISH_V3\ZORKISH_V3\ABOUT.CPP|C:\USERS\ROBERT\DOCUMENTS\UNI\GAMES PROGRAMMING (COS30031)\ZORKISH V3\ZORKISH-V3\ZORKISH_V3\ZORKISH_V3\ANNOUNCESYS.CPP|C:\USERS\ROBERT\DOCUMENTS\UNI\GAMES PROGRAMMING (COS30031)\ZORKISH V3\ZORKISH-V3\ZORKISH_V3\ZORKISH_V3\BACKCOMMAND.CPP|C:\USERS\ROBERT\DOCUMENTS\UNI\GAMES PROGRAMMING (COS30031)\ZORKISH V3\ZORKISH-V3\ZORKISH_V3\ZORKISH_V3\BAG.CPP|C:\USERS\ROBERT\DOCUMENTS\UNI\GAMES PROGRAMMING (COS30031)\ZORKISH V3\ZORKISH-V3\ZORKISH_V3\ZORKISH_V3\CHANNEL.CPP|C:\USERS\ROBERT\DOCUMENTS\UNI\GAMES PROGRAMMING (COS30031)\ZORKISH V3\ZORKISH-V3\ZORKISH_V3\ZORKISH_V3\CHECKSCORECOMMAND.CPP|C:\USERS\ROBERT\DOCUMENTS\UNI\GAMES PROGRAMMING (COS30031)\ZORKISH V3\ZORKISH-V3\ZORKISH_V3\ZORKISH_V3\COMMAND.CPP|C:\USERS\ROBERT\DOCUMENTS\UNI\GAMES PROGRAMMING (COS30031)\ZORKISH V3\ZORKISH-V3\ZORKISH_V3\ZORKISH_V3\COMMANDPROCESSOR.CPP|C:\USERS\ROBERT\DOCUMENTS\UNI\GAMES PROGRAMMING (COS30031)\ZORKISH V3\ZORKISH-V3\ZORKISH_V3\ZORKISH_V3\CREATECOMMAND.CPP|C:\USERS\ROBERT\DOCUMENTS\UNI\GAMES PROGRAMMING (COS30031)\ZORKISH V3\ZORKISH-V3\ZORKISH_V3\ZORKISH_V3\GAMEOBJECT.CPP|C:\USERS\ROBERT\DOCUMENTS\UNI\GAMES PROGRAMMING (COS30031)\ZORKISH V3\ZORKISH-V3\ZORKISH_V3\ZORKISH_V3\GAMEPLAY.CPP|C:\USERS\ROBERT\DOCUMENTS\UNI\GAMES PROGRAMMING (COS30031)\ZORKISH V3\ZORKISH-V3\ZORKISH_V3\ZORKISH_V3\GAMESTATEMANAGER.CPP|C:\USERS\ROBERT\DOCUMENTS\UNI\GAMES PROGRAMMING (COS30031)\ZORKISH V3\ZORKISH-V3\ZORKISH_V3\ZORKISH_V3\HALLOFFAME.CPP|C:\USERS\ROBERT\DOCUMENTS\UNI\GAMES PROGRAMMING (COS30031)\ZORKISH V3\ZORKISH-V3\ZORKISH_V3\ZORKISH_V3\HELP.CPP|C:\USERS\ROBERT\DOCUMENTS\UNI\GAMES PROGRAMMING (COS30031)\ZORKISH V3\ZORKISH-V3\ZORKISH_V3\ZORKISH_V3\IDENTIFIABLEOBJECT.CPP|C:\USERS\ROBERT\DOCUMENTS\UNI\GAMES PROGRAMMING (COS30031)\ZORKISH V3\ZORKISH-V3\ZORKISH_V3\ZORKISH_V3\INVENTORY.CPP|C:\USERS\ROBERT\DOCUMENTS\UNI\GAMES PROGRAMMING (COS30031)\ZORKISH V3\ZORKISH-V3\ZORKISH_V3\ZORKISH_V3\ITEM.CPP|C:\USERS\ROBERT\DOCUMENTS\UNI\GAMES PROGRAMMING (COS30031)\ZORKISH V3\ZORKISH-V3\ZORKISH_V3\ZORKISH_V3\LOCATION.CPP|C:\USERS\ROBERT\DOCUMENTS\UNI\GAMES PROGRAMMING (COS30031)\ZORKISH V3\ZORKISH-V3\ZORKISH_V3\ZORKISH_V3\LOOKCOMMAND.CPP|C:\USERS\ROBERT\DOCUMENTS\UNI\GAMES PROGRAMMING (COS30031)\ZORKISH V3\ZORKISH-V3\ZORKISH_V3\ZORKISH_V3\MAIN.CPP|C:\USERS\ROBERT\DOCUMENTS\UNI\GAMES PROGRAMMING (COS30031)\ZORKISH V3\ZORKISH-V3\ZORKISH_V3\ZORKISH_V3\MAINMENU.CPP|C:\USERS\ROBERT\DOCUMENTS\UNI\GAMES PROGRAMMING (COS30031)\ZORKISH V3\ZORKISH-V3\ZORKISH_V3\ZORKISH_V3\MESSAGE.CPP|C:\USERS\ROBERT\DOCUMENTS\UNI\GAMES PROGRAMMING (COS30031)\ZORKISH V3\ZORKISH-V3\ZORKISH_V3\ZORKISH_V3\MESSAGECENTRE.CPP|C:\USERS\ROBERT\DOCUMENTS\UNI\GAMES PROGRAMMING (COS30031)\ZORKISH V3\ZORKISH-V3\ZORKISH_V3\ZORKISH_V3\MOVECOMMAND.CPP|C:\USERS\ROBERT\DOCUMENTS\UNI\GAMES PROGRAMMING (COS30031)\ZORKISH V3\ZORKISH-V3\ZORKISH_V3\ZORKISH_V3\NEWHIGHSCORE.CPP|C:\USERS\ROBERT\DOCUMENTS\UNI\GAMES PROGRAMMING (COS30031)\ZORKISH V3\ZORKISH-V3\ZORKISH_V3\ZORKISH_V3\PATH.CPP|C:\USERS\ROBERT\DOCUMENTS\UNI\GAMES PROGRAMMING (COS30031)\ZORKISH V3\ZORKISH-V3\ZORKISH_V3\ZORKISH_V3\PLAYER.CPP|C:\USERS\ROBERT\DOCUMENTS\UNI\GAMES PROGRAMMING (COS30031)\ZORKISH V3\ZORKISH-V3\ZORKISH_V3\ZORKISH_V3\SELECTADVENTURE.CPP|C:\USERS\ROBERT\DOCUMENTS\UNI\GAMES PROGRAMMING (COS30031)\ZORKISH V3\ZORKISH-V3\ZORKISH_V3\ZORKISH_V3\STATE.CPP|C:\USERS\ROBERT\DOCUMENTS\UNI\GAMES PROGRAMMING (COS30031)\ZORKISH V3\ZORKISH-V3\ZORKISH_V3\ZORKISH_V3\TRANSFERCOMMAND.CPP
C:\USERS\ROBERT\DOCUMENTS\UNI\GAMES PROGRAMMING (COS30031)\ZORKISH V3\ZORKISH-V3\ZORKISH_V3\ZORKISH_V3\X64\DEBUG\VC140.PDB
C:\USERS\ROBERT\DOCUMENTS\UNI\GAMES PROGRAMMING (COS30031)\ZORKISH V3\ZORKISH-V3\ZORKISH_V3\ZORKISH_V3\X64\DEBUG\VC140.IDB
C:\USERS\ROBERT\DOCUMENTS\UNI\GAMES PROGRAMMING (COS30031)\ZORKISH V3\ZORKISH-V3\ZORKISH_V3\ZORKISH_V3\X64\DEBUG\GAMESTATEMANAGER.OBJ
C:\USERS\ROBERT\DOCUMENTS\UNI\GAMES PROGRAMMING (COS30031)\ZORKISH V3\ZORKISH-V3\ZORKISH_V3\ZORKISH_V3\X64\DEBUG\GAMEPLAY.OBJ
C:\USERS\ROBERT\DOCUMENTS\UNI\GAMES PROGRAMMING (COS30031)\ZORKISH V3\ZORKISH-V3\ZORKISH_V3\ZORKISH_V3\X64\DEBUG\HALLOFFAME.OBJ
C:\USERS\ROBERT\DOCUMENTS\UNI\GAMES PROGRAMMING (COS30031)\ZORKISH V3\ZORKISH-V3\ZORKISH_V3\ZORKISH_V3\X64\DEBUG\HELP.OBJ
C:\USERS\ROBERT\DOCUMENTS\UNI\GAMES PROGRAMMING (COS30031)\ZORKISH V3\ZORKISH-V3\ZORKISH_V3\ZORKISH_V3\X64\DEBUG\IDENTIFIABLEOBJECT.OBJ
C:\USERS\ROBERT\DOCUMENTS\UNI\GAMES PROGRAMMING (COS30031)\ZORKISH V3\ZORKISH-V3\ZORKISH_V3\ZORKISH_V3\X64\DEBUG\INVENTORY.OBJ
C:\USERS\ROBERT\DOCUMENTS\UNI\GAMES PROGRAMMING (COS30031)\ZORKISH V3\ZORKISH-V3\ZORKISH_V3\ZORKISH_V3\X64\DEBUG\ITEM.OBJ
C:\USERS\ROBERT\DOCUMENTS\UNI\GAMES PROGRAMMING (COS30031)\ZORKISH V3\ZORKISH-V3\ZORKISH_V3\ZORKISH_V3\X64\DEBUG\LOCATION.OBJ
C:\USERS\ROBERT\DOCUMENTS\UNI\GAMES PROGRAMMING (COS30031)\ZORKISH V3\ZORKISH-V3\ZORKISH_V3\ZORKISH_V3\X64\DEBUG\LOOKCOMMAND.OBJ
C:\USERS\ROBERT\DOCUMENTS\UNI\GAMES PROGRAMMING (COS30031)\ZORKISH V3\ZORKISH-V3\ZORKISH_V3\ZORKISH_V3\X64\DEBUG\MAIN.OBJ
C:\USERS\ROBERT\DOCUMENTS\UNI\GAMES PROGRAMMING (COS30031)\ZORKISH V3\ZORKISH-V3\ZORKISH_V3\ZORKISH_V3\X64\DEBUG\MAINMENU.OBJ
C:\USERS\ROBERT\DOCUMENTS\UNI\GAMES PROGRAMMING (COS30031)\ZORKISH V3\ZORKISH-V3\ZORKISH_V3\ZORKISH_V3\X64\DEBUG\MESSAGE.OBJ
C:\USERS\ROBERT\DOCUMENTS\UNI\GAMES PROGRAMMING (COS30031)\ZORKISH V3\ZORKISH-V3\ZORKISH_V3\ZORKISH_V3\X64\DEBUG\MESSAGECENTRE.OBJ
C:\USERS\ROBERT\DOCUMENTS\UNI\GAMES PROGRAMMING (COS30031)\ZORKISH V3\ZORKISH-V3\ZORKISH_V3\ZORKISH_V3\X64\DEBUG\MOVECOMMAND.OBJ
C:\USERS\ROBERT\DOCUMENTS\UNI\GAMES PROGRAMMING (COS30031)\ZORKISH V3\ZORKISH-V3\ZORKISH_V3\ZORKISH_V3\X64\DEBUG\NEWHIGHSCORE.OBJ
C:\USERS\ROBERT\DOCUMENTS\UNI\GAMES PROGRAMMING (COS30031)\ZORKISH V3\ZORKISH-V3\ZORKISH_V3\ZORKISH_V3\X64\DEBUG\PATH.OBJ
C:\USERS\ROBERT\DOCUMENTS\UNI\GAMES PROGRAMMING (COS30031)\ZORKISH V3\ZORKISH-V3\ZORKISH_V3\ZORKISH_V3\X64\DEBUG\PLAYER.OBJ
C:\USERS\ROBERT\DOCUMENTS\UNI\GAMES PROGRAMMING (COS30031)\ZORKISH V3\ZORKISH-V3\ZORKISH_V3\ZORKISH_V3\X64\DEBUG\SELECTADVENTURE.OBJ
C:\USERS\ROBERT\DOCUMENTS\UNI\GAMES PROGRAMMING (COS30031)\ZORKISH V3\ZORKISH-V3\ZORKISH_V3\ZORKISH_V3\X64\DEBUG\STATE.OBJ
C:\USERS\ROBERT\DOCUMENTS\UNI\GAMES PROGRAMMING (COS30031)\ZORKISH V3\ZORKISH-V3\ZORKISH_V3\ZORKISH_V3\X64\DEBUG\TRANSFERCOMMAND.OBJ
C:\USERS\ROBERT\DOCUMENTS\UNI\GAMES PROGRAMMING (COS30031)\ZORKISH V3\ZORKISH-V3\ZORKISH_V3\ZORKISH_V3\X64\DEBUG\ABOUT.OBJ
C:\USERS\ROBERT\DOCUMENTS\UNI\GAMES PROGRAMMING (COS30031)\ZORKISH V3\ZORKISH-V3\ZORKISH_V3\ZORKISH_V3\X64\DEBUG\ANNOUNCESYS.OBJ
C:\USERS\ROBERT\DOCUMENTS\UNI\GAMES PROGRAMMING (COS30031)\ZORKISH V3\ZORKISH-V3\ZORKISH_V3\ZORKISH_V3\X64\DEBUG\BACKCOMMAND.OBJ
C:\USERS\ROBERT\DOCUMENTS\UNI\GAMES PROGRAMMING (COS30031)\ZORKISH V3\ZORKISH-V3\ZORKISH_V3\ZORKISH_V3\X64\DEBUG\BAG.OBJ
C:\USERS\ROBERT\DOCUMENTS\UNI\GAMES PROGRAMMING (COS30031)\ZORKISH V3\ZORKISH-V3\ZORKISH_V3\ZORKISH_V3\X64\DEBUG\CHANNEL.OBJ
C:\USERS\ROBERT\DOCUMENTS\UNI\GAMES PROGRAMMING (COS30031)\ZORKISH V3\ZORKISH-V3\ZORKISH_V3\ZORKISH_V3\X64\DEBUG\CHECKSCORECOMMAND.OBJ
C:\USERS\ROBERT\DOCUMENTS\UNI\GAMES PROGRAMMING (COS30031)\ZORKISH V3\ZORKISH-V3\ZORKISH_V3\ZORKISH_V3\X64\DEBUG\COMMAND.OBJ
C:\USERS\ROBERT\DOCUMENTS\UNI\GAMES PROGRAMMING (COS30031)\ZORKISH V3\ZORKISH-V3\ZORKISH_V3\ZORKISH_V3\X64\DEBUG\COMMANDPROCESSOR.OBJ
C:\USERS\ROBERT\DOCUMENTS\UNI\GAMES PROGRAMMING (COS30031)\ZORKISH V3\ZORKISH-V3\ZORKISH_V3\ZORKISH_V3\X64\DEBUG\CREATECOMMAND.OBJ
C:\USERS\ROBERT\DOCUMENTS\UNI\GAMES PROGRAMMING (COS30031)\ZORKISH V3\ZORKISH-V3\ZORKISH_V3\ZORKISH_V3\X64\DEBUG\GAMEOBJECT.OBJ
^C:\USERS\ROBERT\DOCUMENTS\UNI\GAMES PROGRAMMING (COS30031)\ZORKISH V3\ZORKISH-V3\ZORKISH_V3\ZORKISH_V3\ABOUT.CPP
C:\USERS\ROBERT\DOCUMENTS\UNI\GAMES PROGRAMMING (COS30031)\ZORKISH V3\ZORKISH-V3\ZORKISH_V3\ZORKISH_V3\X64\DEBUG\VC140.PDB
^C:\USERS\ROBERT\DOCUMENTS\UNI\GAMES PROGRAMMING (COS30031)\ZORKISH V3\ZORKISH-V3\ZORKISH_V3\ZORKISH_V3\ANNOUNCESYS.CPP
C:\USERS\ROBERT\DOCUMENTS\UNI\GAMES PROGRAMMING (COS30031)\ZORKISH V3\ZORKISH-V3\ZORKISH_V3\ZORKISH_V3\X64\DEBUG\VC140.PDB
^C:\USERS\ROBERT\DOCUMENTS\UNI\GAMES PROGRAMMING (COS30031)\ZORKISH V3\ZORKISH-V3\ZORKISH_V3\ZORKISH_V3\BACKCOMMAND.CPP
C:\USERS\ROBERT\DOCUMENTS\UNI\GAMES PROGRAMMING (COS30031)\ZORKISH V3\ZORKISH-V3\ZORKISH_V3\ZORKISH_V3\X64\DEBUG\VC140.PDB
^C:\USERS\ROBERT\DOCUMENTS\UNI\GAMES PROGRAMMING (COS30031)\ZORKISH V3\ZORKISH-V3\ZORKISH_V3\ZORKISH_V3\BAG.CPP
C:\USERS\ROBERT\DOCUMENTS\UNI\GAMES PROGRAMMING (COS30031)\ZORKISH V3\ZORKISH-V3\ZORKISH_V3\ZORKISH_V3\X64\DEBUG\VC140.PDB
^C:\USERS\ROBERT\DOCUMENTS\UNI\GAMES PROGRAMMING (COS30031)\ZORKISH V3\ZORKISH-V3\ZORKISH_V3\ZORKISH_V3\CHANNEL.CPP
C:\USERS\ROBERT\DOCUMENTS\UNI\GAMES PROGRAMMING (COS30031)\ZORKISH V3\ZORKISH-V3\ZORKISH_V3\ZORKISH_V3\X64\DEBUG\VC140.PDB
^C:\USERS\ROBERT\DOCUMENTS\UNI\GAMES PROGRAMMING (COS30031)\ZORKISH V3\ZORKISH-V3\ZORKISH_V3\ZORKISH_V3\CHECKSCORECOMMAND.CPP
C:\USERS\ROBERT\DOCUMENTS\UNI\GAMES PROGRAMMING (COS30031)\ZORKISH V3\ZORKISH-V3\ZORKISH_V3\ZORKISH_V3\X64\DEBUG\VC140.PDB
C:\USERS\ROBERT\DOCUMENTS\UNI\GAMES PROGRAMMING (COS30031)\ZORKISH V3\ZORKISH-V3\ZORKISH_V3\ZORKISH_V3\X64\DEBUG\VC140.IDB
C:\USERS\ROBERT\DOCUMENTS\UNI\GAMES PROGRAMMING (COS30031)\ZORKISH V3\ZORKISH-V3\ZORKISH_V3\ZORKISH_V3\X64\DEBUG\CHECKSCORECOMMAND.OBJ
^C:\USERS\ROBERT\DOCUMENTS\UNI\GAMES PROGRAMMING (COS30031)\ZORKISH V3\ZORKISH-V3\ZORKISH_V3\ZORKISH_V3\COMMAND.CPP
C:\USERS\ROBERT\DOCUMENTS\UNI\GAMES PROGRAMMING (COS30031)\ZORKISH V3\ZORKISH-V3\ZORKISH_V3\ZORKISH_V3\X64\DEBUG\VC140.PDB
^C:\USERS\ROBERT\DOCUMENTS\UNI\GAMES PROGRAMMING (COS30031)\ZORKISH V3\ZORKISH-V3\ZORKISH_V3\ZORKISH_V3\COMMANDPROCESSOR.CPP
C:\USERS\ROBERT\DOCUMENTS\UNI\GAMES PROGRAMMING (COS30031)\ZORKISH V3\ZORKISH-V3\ZORKISH_V3\ZORKISH_V3\X64\DEBUG\VC140.PDB
^C:\USERS\ROBERT\DOCUMENTS\UNI\GAMES PROGRAMMING (COS30031)\ZORKISH V3\ZORKISH-V3\ZORKISH_V3\ZORKISH_V3\CREATECOMMAND.CPP
C:\USERS\ROBERT\DOCUMENTS\UNI\GAMES PROGRAMMING (COS30031)\ZORKISH V3\ZORKISH-V3\ZORKISH_V3\ZORKISH_V3\X64\DEBUG\VC140.PDB
^C:\USERS\ROBERT\DOCUMENTS\UNI\GAMES PROGRAMMING (COS30031)\ZORKISH V3\ZORKISH-V3\ZORKISH_V3\ZORKISH_V3\GAMEOBJECT.CPP
C:\USERS\ROBERT\DOCUMENTS\UNI\GAMES PROGRAMMING (COS30031)\ZORKISH V3\ZORKISH-V3\ZORKISH_V3\ZORKISH_V3\X64\DEBUG\VC140.PDB
^C:\USERS\ROBERT\DOCUMENTS\UNI\GAMES PROGRAMMING (COS30031)\ZORKISH V3\ZORKISH-V3\ZORKISH_V3\ZORKISH_V3\GAMESTATEMANAGER.CPP
C:\USERS\ROBERT\DOCUMENTS\UNI\GAMES PROGRAMMING (COS30031)\ZORKISH V3\ZORKISH-V3\ZORKISH_V3\ZORKISH_V3\X64\DEBUG\VC140.PDB
^C:\USERS\ROBERT\DOCUMENTS\UNI\GAMES PROGRAMMING (COS30031)\ZORKISH V3\ZORKISH-V3\ZORKISH_V3\ZORKISH_V3\GAMEPLAY.CPP
C:\USERS\ROBERT\DOCUMENTS\UNI\GAMES PROGRAMMING (COS30031)\ZORKISH V3\ZORKISH-V3\ZORKISH_V3\ZORKISH_V3\X64\DEBUG\VC140.PDB
C:\USERS\ROBERT\DOCUMENTS\UNI\GAMES PROGRAMMING (COS30031)\ZORKISH V3\ZORKISH-V3\ZORKISH_V3\ZORKISH_V3\X64\DEBUG\VC140.IDB
C:\USERS\ROBERT\DOCUMENTS\UNI\GAMES PROGRAMMING (COS30031)\ZORKISH V3\ZORKISH-V3\ZORKISH_V3\ZORKISH_V3\X64\DEBUG\GAMEPLAY.OBJ
^C:\USERS\ROBERT\DOCUMENTS\UNI\GAMES PROGRAMMING (COS30031)\ZORKISH V3\ZORKISH-V3\ZORKISH_V3\ZORKISH_V3\HALLOFFAME.CPP
C:\USERS\ROBERT\DOCUMENTS\UNI\GAMES PROGRAMMING (COS30031)\ZORKISH V3\ZORKISH-V3\ZORKISH_V3\ZORKISH_V3\X64\DEBUG\VC140.PDB
^C:\USERS\ROBERT\DOCUMENTS\UNI\GAMES PROGRAMMING (COS30031)\ZORKISH V3\ZORKISH-V3\ZORKISH_V3\ZORKISH_V3\HELP.CPP
C:\USERS\ROBERT\DOCUMENTS\UNI\GAMES PROGRAMMING (COS30031)\ZORKISH V3\ZORKISH-V3\ZORKISH_V3\ZORKISH_V3\X64\DEBUG\VC140.PDB
^C:\USERS\ROBERT\DOCUMENTS\UNI\GAMES PROGRAMMING (COS30031)\ZORKISH V3\ZORKISH-V3\ZORKISH_V3\ZORKISH_V3\IDENTIFIABLEOBJECT.CPP
C:\USERS\ROBERT\DOCUMENTS\UNI\GAMES PROGRAMMING (COS30031)\ZORKISH V3\ZORKISH-V3\ZORKISH_V3\ZORKISH_V3\X64\DEBUG\VC140.PDB
^C:\USERS\ROBERT\DOCUMENTS\UNI\GAMES PROGRAMMING (COS30031)\ZORKISH V3\ZORKISH-V3\ZORKISH_V3\ZORKISH_V3\INVENTORY.CPP
C:\USERS\ROBERT\DOCUMENTS\UNI\GAMES PROGRAMMING (COS30031)\ZORKISH V3\ZORKISH-V3\ZORKISH_V3\ZORKISH_V3\X64\DEBUG\VC140.PDB
^C:\USERS\ROBERT\DOCUMENTS\UNI\GAMES PROGRAMMING (COS30031)\ZORKISH V3\ZORKISH-V3\ZORKISH_V3\ZORKISH_V3\ITEM.CPP
C:\USERS\ROBERT\DOCUMENTS\UNI\GAMES PROGRAMMING (COS30031)\ZORKISH V3\ZORKISH-V3\ZORKISH_V3\ZORKISH_V3\X64\DEBUG\VC140.PDB
^C:\USERS\ROBERT\DOCUMENTS\UNI\GAMES PROGRAMMING (COS30031)\ZORKISH V3\ZORKISH-V3\ZORKISH_V3\ZORKISH_V3\LOCATION.CPP
C:\USERS\ROBERT\DOCUMENTS\UNI\GAMES PROGRAMMING (COS30031)\ZORKISH V3\ZORKISH-V3\ZORKISH_V3\ZORKISH_V3\X64\DEBUG\VC140.PDB
^C:\USERS\ROBERT\DOCUMENTS\UNI\GAMES PROGRAMMING (COS30031)\ZORKISH V3\ZORKISH-V3\ZORKISH_V3\ZORKISH_V3\LOOKCOMMAND.CPP
C:\USERS\ROBERT\DOCUMENTS\UNI\GAMES PROGRAMMING (COS30031)\ZORKISH V3\ZORKISH-V3\ZORKISH_V3\ZORKISH_V3\X64\DEBUG\VC140.PDB
^C:\USERS\ROBERT\DOCUMENTS\UNI\GAMES PROGRAMMING (COS30031)\ZORKISH V3\ZORKISH-V3\ZORKISH_V3\ZORKISH_V3\MAIN.CPP
C:\USERS\ROBERT\DOCUMENTS\UNI\GAMES PROGRAMMING (COS30031)\ZORKISH V3\ZORKISH-V3\ZORKISH_V3\ZORKISH_V3\X64\DEBUG\VC140.PDB
^C:\USERS\ROBERT\DOCUMENTS\UNI\GAMES PROGRAMMING (COS30031)\ZORKISH V3\ZORKISH-V3\ZORKISH_V3\ZORKISH_V3\MAINMENU.CPP
C:\USERS\ROBERT\DOCUMENTS\UNI\GAMES PROGRAMMING (COS30031)\ZORKISH V3\ZORKISH-V3\ZORKISH_V3\ZORKISH_V3\X64\DEBUG\VC140.PDB
^C:\USERS\ROBERT\DOCUMENTS\UNI\GAMES PROGRAMMING (COS30031)\ZORKISH V3\ZORKISH-V3\ZORKISH_V3\ZORKISH_V3\MESSAGE.CPP
C:\USERS\ROBERT\DOCUMENTS\UNI\GAMES PROGRAMMING (COS30031)\ZORKISH V3\ZORKISH-V3\ZORKISH_V3\ZORKISH_V3\X64\DEBUG\VC140.PDB
^C:\USERS\ROBERT\DOCUMENTS\UNI\GAMES PROGRAMMING (COS30031)\ZORKISH V3\ZORKISH-V3\ZORKISH_V3\ZORKISH_V3\MESSAGECENTRE.CPP
C:\USERS\ROBERT\DOCUMENTS\UNI\GAMES PROGRAMMING (COS30031)\ZORKISH V3\ZORKISH-V3\ZORKISH_V3\ZORKISH_V3\X64\DEBUG\VC140.PDB
C:\USERS\ROBERT\DOCUMENTS\UNI\GAMES PROGRAMMING (COS30031)\ZORKISH V3\ZORKISH-V3\ZORKISH_V3\ZORKISH_V3\X64\DEBUG\VC140.IDB
C:\USERS\ROBERT\DOCUMENTS\UNI\GAMES PROGRAMMING (COS30031)\ZORKISH V3\ZORKISH-V3\ZORKISH_V3\ZORKISH_V3\X64\DEBUG\MESSAGECENTRE.OBJ
^C:\USERS\ROBERT\DOCUMENTS\UNI\GAMES PROGRAMMING (COS30031)\ZORKISH V3\ZORKISH-V3\ZORKISH_V3\ZORKISH_V3\MOVECOMMAND.CPP
C:\USERS\ROBERT\DOCUMENTS\UNI\GAMES PROGRAMMING (COS30031)\ZORKISH V3\ZORKISH-V3\ZORKISH_V3\ZORKISH_V3\X64\DEBUG\VC140.PDB
^C:\USERS\ROBERT\DOCUMENTS\UNI\GAMES PROGRAMMING (COS30031)\ZORKISH V3\ZORKISH-V3\ZORKISH_V3\ZORKISH_V3\NEWHIGHSCORE.CPP
C:\USERS\ROBERT\DOCUMENTS\UNI\GAMES PROGRAMMING (COS30031)\ZORKISH V3\ZORKISH-V3\ZORKISH_V3\ZORKISH_V3\X64\DEBUG\VC140.PDB
^C:\USERS\ROBERT\DOCUMENTS\UNI\GAMES PROGRAMMING (COS30031)\ZORKISH V3\ZORKISH-V3\ZORKISH_V3\ZORKISH_V3\PATH.CPP
C:\USERS\ROBERT\DOCUMENTS\UNI\GAMES PROGRAMMING (COS30031)\ZORKISH V3\ZORKISH-V3\ZORKISH_V3\ZORKISH_V3\X64\DEBUG\VC140.PDB
^C:\USERS\ROBERT\DOCUMENTS\UNI\GAMES PROGRAMMING (COS30031)\ZORKISH V3\ZORKISH-V3\ZORKISH_V3\ZORKISH_V3\PLAYER.CPP
C:\USERS\ROBERT\DOCUMENTS\UNI\GAMES PROGRAMMING (COS30031)\ZORKISH V3\ZORKISH-V3\ZORKISH_V3\ZORKISH_V3\X64\DEBUG\VC140.PDB
^C:\USERS\ROBERT\DOCUMENTS\UNI\GAMES PROGRAMMING (COS30031)\ZORKISH V3\ZORKISH-V3\ZORKISH_V3\ZORKISH_V3\SELECTADVENTURE.CPP
C:\USERS\ROBERT\DOCUMENTS\UNI\GAMES PROGRAMMING (COS30031)\ZORKISH V3\ZORKISH-V3\ZORKISH_V3\ZORKISH_V3\X64\DEBUG\VC140.PDB
^C:\USERS\ROBERT\DOCUMENTS\UNI\GAMES PROGRAMMING (COS30031)\ZORKISH V3\ZORKISH-V3\ZORKISH_V3\ZORKISH_V3\STATE.CPP
C:\USERS\ROBERT\DOCUMENTS\UNI\GAMES PROGRAMMING (COS30031)\ZORKISH V3\ZORKISH-V3\ZORKISH_V3\ZORKISH_V3\X64\DEBUG\VC140.PDB
^C:\USERS\ROBERT\DOCUMENTS\UNI\GAMES PROGRAMMING (COS30031)\ZORKISH V3\ZORKISH-V3\ZORKISH_V3\ZORKISH_V3\TRANSFERCOMMAND.CPP
C:\USERS\ROBERT\DOCUMENTS\UNI\GAMES PROGRAMMING (COS30031)\ZORKISH V3\ZORKISH-V3\ZORKISH_V3\ZORKISH_V3\X64\DEBUG\VC140.PDB
^C:\USERS\ROBERT\DOCUMENTS\UNI\GAMES PROGRAMMING (COS30031)\ZORKISH V3\ZORKISH-V3\ZORKISH_V3\ZORKISH_V3\ABOUT.CPP|C:\USERS\ROBERT\DOCUMENTS\UNI\GAMES PROGRAMMING (COS30031)\ZORKISH V3\ZORKISH-V3\ZORKISH_V3\ZORKISH_V3\ANNOUNCESYS.CPP|C:\USERS\ROBERT\DOCUMENTS\UNI\GAMES PROGRAMMING (COS30031)\ZORKISH V3\ZORKISH-V3\ZORKISH_V3\ZORKISH_V3\BACKCOMMAND.CPP|C:\USERS\ROBERT\DOCUMENTS\UNI\GAMES PROGRAMMING (COS30031)\ZORKISH V3\ZORKISH-V3\ZORKISH_V3\ZORKISH_V3\CHANNEL.CPP|C:\USERS\ROBERT\DOCUMENTS\UNI\GAMES PROGRAMMING (COS30031)\ZORKISH V3\ZORKISH-V3\ZORKISH_V3\ZORKISH_V3\CHECKSCORECOMMAND.CPP|C:\USERS\ROBERT\DOCUMENTS\UNI\GAMES PROGRAMMING (COS30031)\ZORKISH V3\ZORKISH-V3\ZORKISH_V3\ZORKISH_V3\COMMANDPROCESSOR.CPP|C:\USERS\ROBERT\DOCUMENTS\UNI\GAMES PROGRAMMING (COS30031)\ZORKISH V3\ZORKISH-V3\ZORKISH_V3\ZORKISH_V3\CREATECOMMAND.CPP|C:\USERS\ROBERT\DOCUMENTS\UNI\GAMES PROGRAMMING (COS30031)\ZORKISH V3\ZORKISH-V3\ZORKISH_V3\ZORKISH_V3\GAMEPLAY.CPP|C:\USERS\ROBERT\DOCUMENTS\UNI\GAMES PROGRAMMING (COS30031)\ZORKISH V3\ZORKISH-V3\ZORKISH_V3\ZORKISH_V3\GAMESTATEMANAGER.CPP|C:\USERS\ROBERT\DOCUMENTS\UNI\GAMES PROGRAMMING (COS30031)\ZORKISH V3\ZORKISH-V3\ZORKISH_V3\ZORKISH_V3\HALLOFFAME.CPP|C:\USERS\ROBERT\DOCUMENTS\UNI\GAMES PROGRAMMING (COS30031)\ZORKISH V3\ZORKISH-V3\ZORKISH_V3\ZORKISH_V3\HELP.CPP|C:\USERS\ROBERT\DOCUMENTS\UNI\GAMES PROGRAMMING (COS30031)\ZORKISH V3\ZORKISH-V3\ZORKISH_V3\ZORKISH_V3\MAIN.CPP|C:\USERS\ROBERT\DOCUMENTS\UNI\GAMES PROGRAMMING (COS30031)\ZORKISH V3\ZORKISH-V3\ZORKISH_V3\ZORKISH_V3\MAINMENU.CPP|C:\USERS\ROBERT\DOCUMENTS\UNI\GAMES PROGRAMMING (COS30031)\ZORKISH V3\ZORKISH-V3\ZORKISH_V3\ZORKISH_V3\MESSAGE.CPP|C:\USERS\ROBERT\DOCUMENTS\UNI\GAMES PROGRAMMING (COS30031)\ZORKISH V3\ZORKISH-V3\ZORKISH_V3\ZORKISH_V3\MESSAGECENTRE.CPP|C:\USERS\ROBERT\DOCUMENTS\UNI\GAMES PROGRAMMING (COS30031)\ZORKISH V3\ZORKISH-V3\ZORKISH_V3\ZORKISH_V3\MOVECOMMAND.CPP|C:\USERS\ROBERT\DOCUMENTS\UNI\GAMES PROGRAMMING (COS30031)\ZORKISH V3\ZORKISH-V3\ZORKISH_V3\ZORKISH_V3\NEWHIGHSCORE.CPP|C:\USERS\ROBERT\DOCUMENTS\UNI\GAMES PROGRAMMING (COS30031)\ZORKISH V3\ZORKISH-V3\ZORKISH_V3\ZORKISH_V3\PLAYER.CPP|C:\USERS\ROBERT\DOCUMENTS\UNI\GAMES PROGRAMMING (COS30031)\ZORKISH V3\ZORKISH-V3\ZORKISH_V3\ZORKISH_V3\SELECTADVENTURE.CPP|C:\USERS\ROBERT\DOCUMENTS\UNI\GAMES PROGRAMMING (COS30031)\ZORKISH V3\ZORKISH-V3\ZORKISH_V3\ZORKISH_V3\STATE.CPP
C:\USERS\ROBERT\DOCUMENTS\UNI\GAMES PROGRAMMING (COS30031)\ZORKISH V3\ZORKISH-V3\ZORKISH_V3\ZORKISH_V3\X64\DEBUG\VC140.PDB
C:\USERS\ROBERT\DOCUMENTS\UNI\GAMES PROGRAMMING (COS30031)\ZORKISH V3\ZORKISH-V3\ZORKISH_V3\ZORKISH_V3\X64\DEBUG\VC140.IDB
C:\USERS\ROBERT\DOCUMENTS\UNI\GAMES PROGRAMMING (COS30031)\ZORKISH V3\ZORKISH-V3\ZORKISH_V3\ZORKISH_V3\X64\DEBUG\CHANNEL.OBJ
C:\USERS\ROBERT\DOCUMENTS\UNI\GAMES PROGRAMMING (COS30031)\ZORKISH V3\ZORKISH-V3\ZORKISH_V3\ZORKISH_V3\X64\DEBUG\CHECKSCORECOMMAND.OBJ
C:\USERS\ROBERT\DOCUMENTS\UNI\GAMES PROGRAMMING (COS30031)\ZORKISH V3\ZORKISH-V3\ZORKISH_V3\ZORKISH_V3\X64\DEBUG\GAMESTATEMANAGER.OBJ
C:\USERS\ROBERT\DOCUMENTS\UNI\GAMES PROGRAMMING (COS30031)\ZORKISH V3\ZORKISH-V3\ZORKISH_V3\ZORKISH_V3\X64\DEBUG\GAMEPLAY.OBJ
C:\USERS\ROBERT\DOCUMENTS\UNI\GAMES PROGRAMMING (COS30031)\ZORKISH V3\ZORKISH-V3\ZORKISH_V3\ZORKISH_V3\X64\DEBUG\MAIN.OBJ
C:\USERS\ROBERT\DOCUMENTS\UNI\GAMES PROGRAMMING (COS30031)\ZORKISH V3\ZORKISH-V3\ZORKISH_V3\ZORKISH_V3\X64\DEBUG\MESSAGE.OBJ
C:\USERS\ROBERT\DOCUMENTS\UNI\GAMES PROGRAMMING (COS30031)\ZORKISH V3\ZORKISH-V3\ZORKISH_V3\ZORKISH_V3\X64\DEBUG\MESSAGECENTRE.OBJ
C:\USERS\ROBERT\DOCUMENTS\UNI\GAMES PROGRAMMING (COS30031)\ZORKISH V3\ZORKISH-V3\ZORKISH_V3\ZORKISH_V3\X64\DEBUG\MOVECOMMAND.OBJ
C:\USERS\ROBERT\DOCUMENTS\UNI\GAMES PROGRAMMING (COS30031)\ZORKISH V3\ZORKISH-V3\ZORKISH_V3\ZORKISH_V3\X64\DEBUG\PLAYER.OBJ
C:\USERS\ROBERT\DOCUMENTS\UNI\GAMES PROGRAMMING (COS30031)\ZORKISH V3\ZORKISH-V3\ZORKISH_V3\ZORKISH_V3\X64\DEBUG\ABOUT.OBJ
C:\USERS\ROBERT\DOCUMENTS\UNI\GAMES PROGRAMMING (COS30031)\ZORKISH V3\ZORKISH-V3\ZORKISH_V3\ZORKISH_V3\X64\DEBUG\ANNOUNCESYS.OBJ
C:\USERS\ROBERT\DOCUMENTS\UNI\GAMES PROGRAMMING (COS30031)\ZORKISH V3\ZORKISH-V3\ZORKISH_V3\ZORKISH_V3\X64\DEBUG\BACKCOMMAND.OBJ
C:\USERS\ROBERT\DOCUMENTS\UNI\GAMES PROGRAMMING (COS30031)\ZORKISH V3\ZORKISH-V3\ZORKISH_V3\ZORKISH_V3\X64\DEBUG\COMMANDPROCESSOR.OBJ
C:\USERS\ROBERT\DOCUMENTS\UNI\GAMES PROGRAMMING (COS30031)\ZORKISH V3\ZORKISH-V3\ZORKISH_V3\ZORKISH_V3\X64\DEBUG\CREATECOMMAND.OBJ
C:\USERS\ROBERT\DOCUMENTS\UNI\GAMES PROGRAMMING (COS30031)\ZORKISH V3\ZORKISH-V3\ZORKISH_V3\ZORKISH_V3\X64\DEBUG\HALLOFFAME.OBJ
C:\USERS\ROBERT\DOCUMENTS\UNI\GAMES PROGRAMMING (COS30031)\ZORKISH V3\ZORKISH-V3\ZORKISH_V3\ZORKISH_V3\X64\DEBUG\HELP.OBJ
C:\USERS\ROBERT\DOCUMENTS\UNI\GAMES PROGRAMMING (COS30031)\ZORKISH V3\ZORKISH-V3\ZORKISH_V3\ZORKISH_V3\X64\DEBUG\MAINMENU.OBJ
C:\USERS\ROBERT\DOCUMENTS\UNI\GAMES PROGRAMMING (COS30031)\ZORKISH V3\ZORKISH-V3\ZORKISH_V3\ZORKISH_V3\X64\DEBUG\NEWHIGHSCORE.OBJ
C:\USERS\ROBERT\DOCUMENTS\UNI\GAMES PROGRAMMING (COS30031)\ZORKISH V3\ZORKISH-V3\ZORKISH_V3\ZORKISH_V3\X64\DEBUG\SELECTADVENTURE.OBJ
C:\USERS\ROBERT\DOCUMENTS\UNI\GAMES PROGRAMMING (COS30031)\ZORKISH V3\ZORKISH-V3\ZORKISH_V3\ZORKISH_V3\X64\DEBUG\STATE.OBJ
^C:\USERS\ROBERT\DOCUMENTS\UNI\GAMES PROGRAMMING (COS30031)\ZORKISH V3\ZORKISH-V3\ZORKISH_V3\ZORKISH_V3\GAMEPLAY.CPP|C:\USERS\ROBERT\DOCUMENTS\UNI\GAMES PROGRAMMING (COS30031)\ZORKISH V3\ZORKISH-V3\ZORKISH_V3\ZORKISH_V3\MOVECOMMAND.CPP
C:\USERS\ROBERT\DOCUMENTS\UNI\GAMES PROGRAMMING (COS30031)\ZORKISH V3\ZORKISH-V3\ZORKISH_V3\ZORKISH_V3\X64\DEBUG\VC140.PDB
C:\USERS\ROBERT\DOCUMENTS\UNI\GAMES PROGRAMMING (COS30031)\ZORKISH V3\ZORKISH-V3\ZORKISH_V3\ZORKISH_V3\X64\DEBUG\VC140.IDB
C:\USERS\ROBERT\DOCUMENTS\UNI\GAMES PROGRAMMING (COS30031)\ZORKISH V3\ZORKISH-V3\ZORKISH_V3\ZORKISH_V3\X64\DEBUG\GAMEPLAY.OBJ
C:\USERS\ROBERT\DOCUMENTS\UNI\GAMES PROGRAMMING (COS30031)\ZORKISH V3\ZORKISH-V3\ZORKISH_V3\ZORKISH_V3\X64\DEBUG\MOVECOMMAND.OBJ
