^C:\USERS\ROBERT\DOCUMENTS\UNI\GAMES PROGRAMMING (COS30031)\ZORKISH V3\ZORKISH-V3\ZORKISH_V3\ZORKISH_V3\X64\DEBUG\ABOUT.OBJ|C:\USERS\ROBERT\DOCUMENTS\UNI\GAMES PROGRAMMING (COS30031)\ZORKISH V3\ZORKISH-V3\ZORKISH_V3\ZORKISH_V3\X64\DEBUG\ANNOUNCESYS.OBJ|C:\USERS\ROBERT\DOCUMENTS\UNI\GAMES PROGRAMMING (COS30031)\ZORKISH V3\ZORKISH-V3\ZORKISH_V3\ZORKISH_V3\X64\DEBUG\BACKCOMMAND.OBJ|C:\USERS\ROBERT\DOCUMENTS\UNI\GAMES PROGRAMMING (COS30031)\ZORKISH V3\ZORKISH-V3\ZORKISH_V3\ZORKISH_V3\X64\DEBUG\BAG.OBJ|C:\USERS\ROBERT\DOCUMENTS\UNI\GAMES PROGRAMMING (COS30031)\ZORKISH V3\ZORKISH-V3\ZORKISH_V3\ZORKISH_V3\X64\DEBUG\CHANNEL.OBJ|C:\USERS\ROBERT\DOCUMENTS\UNI\GAMES PROGRAMMING (COS30031)\ZORKISH V3\ZORKISH-V3\ZORKISH_V3\ZORKISH_V3\X64\DEBUG\CHECKSCORECOMMAND.OBJ|C:\USERS\ROBERT\DOCUMENTS\UNI\GAMES PROGRAMMING (COS30031)\ZORKISH V3\ZORKISH-V3\ZORKISH_V3\ZORKISH_V3\X64\DEBUG\COMMAND.OBJ|C:\USERS\ROBERT\DOCUMENTS\UNI\GAMES PROGRAMMING (COS30031)\ZORKISH V3\ZORKISH-V3\ZORKISH_V3\ZORKISH_V3\X64\DEBUG\COMMANDPROCESSOR.OBJ|C:\USERS\ROBERT\DOCUMENTS\UNI\GAMES PROGRAMMING (COS30031)\ZORKISH V3\ZORKISH-V3\ZORKISH_V3\ZORKISH_V3\X64\DEBUG\CREATECOMMAND.OBJ|C:\USERS\ROBERT\DOCUMENTS\UNI\GAMES PROGRAMMING (COS30031)\ZORKISH V3\ZORKISH-V3\ZORKISH_V3\ZORKISH_V3\X64\DEBUG\GAMEOBJECT.OBJ|C:\USERS\ROBERT\DOCUMENTS\UNI\GAMES PROGRAMMING (COS30031)\ZORKISH V3\ZORKISH-V3\ZORKISH_V3\ZORKISH_V3\X64\DEBUG\GAMEPLAY.OBJ|C:\USERS\ROBERT\DOCUMENTS\UNI\GAMES PROGRAMMING (COS30031)\ZORKISH V3\ZORKISH-V3\ZORKISH_V3\ZORKISH_V3\X64\DEBUG\GAMESTATEMANAGER.OBJ|C:\USERS\ROBERT\DOCUMENTS\UNI\GAMES PROGRAMMING (COS30031)\ZORKISH V3\ZORKISH-V3\ZORKISH_V3\ZORKISH_V3\X64\DEBUG\HALLOFFAME.OBJ|C:\USERS\ROBERT\DOCUMENTS\UNI\GAMES PROGRAMMING (COS30031)\ZORKISH V3\ZORKISH-V3\ZORKISH_V3\ZORKISH_V3\X64\DEBUG\HELP.OBJ|C:\USERS\ROBERT\DOCUMENTS\UNI\GAMES PROGRAMMING (COS30031)\ZORKISH V3\ZORKISH-V3\ZORKISH_V3\ZORKISH_V3\X64\DEBUG\IDENTIFIABLEOBJECT.OBJ|C:\USERS\ROBERT\DOCUMENTS\UNI\GAMES PROGRAMMING (COS30031)\ZORKISH V3\ZORKISH-V3\ZORKISH_V3\ZORKISH_V3\X64\DEBUG\INVENTORY.OBJ|C:\USERS\ROBERT\DOCUMENTS\UNI\GAMES PROGRAMMING (COS30031)\ZORKISH V3\ZORKISH-V3\ZORKISH_V3\ZORKISH_V3\X64\DEBUG\ITEM.OBJ|C:\USERS\ROBERT\DOCUMENTS\UNI\GAMES PROGRAMMING (COS30031)\ZORKISH V3\ZORKISH-V3\ZORKISH_V3\ZORKISH_V3\X64\DEBUG\LOCATION.OBJ|C:\USERS\ROBERT\DOCUMENTS\UNI\GAMES PROGRAMMING (COS30031)\ZORKISH V3\ZORKISH-V3\ZORKISH_V3\ZORKISH_V3\X64\DEBUG\LOOKCOMMAND.OBJ|C:\USERS\ROBERT\DOCUMENTS\UNI\GAMES PROGRAMMING (COS30031)\ZORKISH V3\ZORKISH-V3\ZORKISH_V3\ZORKISH_V3\X64\DEBUG\MAIN.OBJ|C:\USERS\ROBERT\DOCUMENTS\UNI\GAMES PROGRAMMING (COS30031)\ZORKISH V3\ZORKISH-V3\ZORKISH_V3\ZORKISH_V3\X64\DEBUG\MAINMENU.OBJ|C:\USERS\ROBERT\DOCUMENTS\UNI\GAMES PROGRAMMING (COS30031)\ZORKISH V3\ZORKISH-V3\ZORKISH_V3\ZORKISH_V3\X64\DEBUG\MESSAGE.OBJ|C:\USERS\ROBERT\DOCUMENTS\UNI\GAMES PROGRAMMING (COS30031)\ZORKISH V3\ZORKISH-V3\ZORKISH_V3\ZORKISH_V3\X64\DEBUG\MESSAGECENTRE.OBJ|C:\USERS\ROBERT\DOCUMENTS\UNI\GAMES PROGRAMMING (COS30031)\ZORKISH V3\ZORKISH-V3\ZORKISH_V3\ZORKISH_V3\X64\DEBUG\MOVECOMMAND.OBJ|C:\USERS\ROBERT\DOCUMENTS\UNI\GAMES PROGRAMMING (COS30031)\ZORKISH V3\ZORKISH-V3\ZORKISH_V3\ZORKISH_V3\X64\DEBUG\NEWHIGHSCORE.OBJ|C:\USERS\ROBERT\DOCUMENTS\UNI\GAMES PROGRAMMING (COS30031)\ZORKISH V3\ZORKISH-V3\ZORKISH_V3\ZORKISH_V3\X64\DEBUG\PATH.OBJ|C:\USERS\ROBERT\DOCUMENTS\UNI\GAMES PROGRAMMING (COS30031)\ZORKISH V3\ZORKISH-V3\ZORKISH_V3\ZORKISH_V3\X64\DEBUG\PLAYER.OBJ|C:\USERS\ROBERT\DOCUMENTS\UNI\GAMES PROGRAMMING (COS30031)\ZORKISH V3\ZORKISH-V3\ZORKISH_V3\ZORKISH_V3\X64\DEBUG\SELECTADVENTURE.OBJ|C:\USERS\ROBERT\DOCUMENTS\UNI\GAMES PROGRAMMING (COS30031)\ZORKISH V3\ZORKISH-V3\ZORKISH_V3\ZORKISH_V3\X64\DEBUG\STATE.OBJ|C:\USERS\ROBERT\DOCUMENTS\UNI\GAMES PROGRAMMING (COS30031)\ZORKISH V3\ZORKISH-V3\ZORKISH_V3\ZORKISH_V3\X64\DEBUG\TRANSFERCOMMAND.OBJ
C:\WINDOWS\GLOBALIZATION\SORTING\SORTDEFAULT.NLS
C:\PROGRAM FILES (X86)\WINDOWS KITS\8.1\LIB\WINV6.3\UM\X64\KERNEL32.LIB
C:\PROGRAM FILES (X86)\WINDOWS KITS\8.1\LIB\WINV6.3\UM\X64\USER32.LIB
C:\PROGRAM FILES (X86)\WINDOWS KITS\8.1\LIB\WINV6.3\UM\X64\GDI32.LIB
C:\PROGRAM FILES (X86)\WINDOWS KITS\8.1\LIB\WINV6.3\UM\X64\WINSPOOL.LIB
C:\PROGRAM FILES (X86)\WINDOWS KITS\8.1\LIB\WINV6.3\UM\X64\COMDLG32.LIB
C:\PROGRAM FILES (X86)\WINDOWS KITS\8.1\LIB\WINV6.3\UM\X64\ADVAPI32.LIB
C:\PROGRAM FILES (X86)\WINDOWS KITS\8.1\LIB\WINV6.3\UM\X64\SHELL32.LIB
C:\PROGRAM FILES (X86)\WINDOWS KITS\8.1\LIB\WINV6.3\UM\X64\OLE32.LIB
C:\PROGRAM FILES (X86)\WINDOWS KITS\8.1\LIB\WINV6.3\UM\X64\OLEAUT32.LIB
C:\PROGRAM FILES (X86)\WINDOWS KITS\8.1\LIB\WINV6.3\UM\X64\UUID.LIB
C:\PROGRAM FILES (X86)\WINDOWS KITS\8.1\LIB\WINV6.3\UM\X64\ODBC32.LIB
C:\PROGRAM FILES (X86)\WINDOWS KITS\8.1\LIB\WINV6.3\UM\X64\ODBCCP32.LIB
C:\USERS\ROBERT\DOCUMENTS\UNI\GAMES PROGRAMMING (COS30031)\ZORKISH V3\ZORKISH-V3\ZORKISH_V3\ZORKISH_V3\X64\DEBUG\ABOUT.OBJ
C:\USERS\ROBERT\DOCUMENTS\UNI\GAMES PROGRAMMING (COS30031)\ZORKISH V3\ZORKISH-V3\ZORKISH_V3\ZORKISH_V3\X64\DEBUG\ANNOUNCESYS.OBJ
C:\USERS\ROBERT\DOCUMENTS\UNI\GAMES PROGRAMMING (COS30031)\ZORKISH V3\ZORKISH-V3\ZORKISH_V3\ZORKISH_V3\X64\DEBUG\BACKCOMMAND.OBJ
C:\USERS\ROBERT\DOCUMENTS\UNI\GAMES PROGRAMMING (COS30031)\ZORKISH V3\ZORKISH-V3\ZORKISH_V3\ZORKISH_V3\X64\DEBUG\BAG.OBJ
C:\USERS\ROBERT\DOCUMENTS\UNI\GAMES PROGRAMMING (COS30031)\ZORKISH V3\ZORKISH-V3\ZORKISH_V3\ZORKISH_V3\X64\DEBUG\CHANNEL.OBJ
C:\USERS\ROBERT\DOCUMENTS\UNI\GAMES PROGRAMMING (COS30031)\ZORKISH V3\ZORKISH-V3\ZORKISH_V3\ZORKISH_V3\X64\DEBUG\CHECKSCORECOMMAND.OBJ
C:\USERS\ROBERT\DOCUMENTS\UNI\GAMES PROGRAMMING (COS30031)\ZORKISH V3\ZORKISH-V3\ZORKISH_V3\ZORKISH_V3\X64\DEBUG\COMMAND.OBJ
C:\USERS\ROBERT\DOCUMENTS\UNI\GAMES PROGRAMMING (COS30031)\ZORKISH V3\ZORKISH-V3\ZORKISH_V3\ZORKISH_V3\X64\DEBUG\COMMANDPROCESSOR.OBJ
C:\USERS\ROBERT\DOCUMENTS\UNI\GAMES PROGRAMMING (COS30031)\ZORKISH V3\ZORKISH-V3\ZORKISH_V3\ZORKISH_V3\X64\DEBUG\CREATECOMMAND.OBJ
C:\USERS\ROBERT\DOCUMENTS\UNI\GAMES PROGRAMMING (COS30031)\ZORKISH V3\ZORKISH-V3\ZORKISH_V3\ZORKISH_V3\X64\DEBUG\GAMEOBJECT.OBJ
C:\USERS\ROBERT\DOCUMENTS\UNI\GAMES PROGRAMMING (COS30031)\ZORKISH V3\ZORKISH-V3\ZORKISH_V3\ZORKISH_V3\X64\DEBUG\GAMEPLAY.OBJ
C:\USERS\ROBERT\DOCUMENTS\UNI\GAMES PROGRAMMING (COS30031)\ZORKISH V3\ZORKISH-V3\ZORKISH_V3\ZORKISH_V3\X64\DEBUG\GAMESTATEMANAGER.OBJ
C:\USERS\ROBERT\DOCUMENTS\UNI\GAMES PROGRAMMING (COS30031)\ZORKISH V3\ZORKISH-V3\ZORKISH_V3\ZORKISH_V3\X64\DEBUG\HALLOFFAME.OBJ
C:\USERS\ROBERT\DOCUMENTS\UNI\GAMES PROGRAMMING (COS30031)\ZORKISH V3\ZORKISH-V3\ZORKISH_V3\ZORKISH_V3\X64\DEBUG\HELP.OBJ
C:\USERS\ROBERT\DOCUMENTS\UNI\GAMES PROGRAMMING (COS30031)\ZORKISH V3\ZORKISH-V3\ZORKISH_V3\ZORKISH_V3\X64\DEBUG\IDENTIFIABLEOBJECT.OBJ
C:\USERS\ROBERT\DOCUMENTS\UNI\GAMES PROGRAMMING (COS30031)\ZORKISH V3\ZORKISH-V3\ZORKISH_V3\ZORKISH_V3\X64\DEBUG\INVENTORY.OBJ
C:\USERS\ROBERT\DOCUMENTS\UNI\GAMES PROGRAMMING (COS30031)\ZORKISH V3\ZORKISH-V3\ZORKISH_V3\ZORKISH_V3\X64\DEBUG\ITEM.OBJ
C:\USERS\ROBERT\DOCUMENTS\UNI\GAMES PROGRAMMING (COS30031)\ZORKISH V3\ZORKISH-V3\ZORKISH_V3\ZORKISH_V3\X64\DEBUG\LOCATION.OBJ
C:\USERS\ROBERT\DOCUMENTS\UNI\GAMES PROGRAMMING (COS30031)\ZORKISH V3\ZORKISH-V3\ZORKISH_V3\ZORKISH_V3\X64\DEBUG\LOOKCOMMAND.OBJ
C:\USERS\ROBERT\DOCUMENTS\UNI\GAMES PROGRAMMING (COS30031)\ZORKISH V3\ZORKISH-V3\ZORKISH_V3\ZORKISH_V3\X64\DEBUG\MAIN.OBJ
C:\USERS\ROBERT\DOCUMENTS\UNI\GAMES PROGRAMMING (COS30031)\ZORKISH V3\ZORKISH-V3\ZORKISH_V3\ZORKISH_V3\X64\DEBUG\MAINMENU.OBJ
C:\USERS\ROBERT\DOCUMENTS\UNI\GAMES PROGRAMMING (COS30031)\ZORKISH V3\ZORKISH-V3\ZORKISH_V3\ZORKISH_V3\X64\DEBUG\MESSAGE.OBJ
C:\USERS\ROBERT\DOCUMENTS\UNI\GAMES PROGRAMMING (COS30031)\ZORKISH V3\ZORKISH-V3\ZORKISH_V3\ZORKISH_V3\X64\DEBUG\MESSAGECENTRE.OBJ
C:\USERS\ROBERT\DOCUMENTS\UNI\GAMES PROGRAMMING (COS30031)\ZORKISH V3\ZORKISH-V3\ZORKISH_V3\ZORKISH_V3\X64\DEBUG\MOVECOMMAND.OBJ
C:\USERS\ROBERT\DOCUMENTS\UNI\GAMES PROGRAMMING (COS30031)\ZORKISH V3\ZORKISH-V3\ZORKISH_V3\ZORKISH_V3\X64\DEBUG\NEWHIGHSCORE.OBJ
C:\USERS\ROBERT\DOCUMENTS\UNI\GAMES PROGRAMMING (COS30031)\ZORKISH V3\ZORKISH-V3\ZORKISH_V3\ZORKISH_V3\X64\DEBUG\PATH.OBJ
C:\USERS\ROBERT\DOCUMENTS\UNI\GAMES PROGRAMMING (COS30031)\ZORKISH V3\ZORKISH-V3\ZORKISH_V3\ZORKISH_V3\X64\DEBUG\PLAYER.OBJ
C:\USERS\ROBERT\DOCUMENTS\UNI\GAMES PROGRAMMING (COS30031)\ZORKISH V3\ZORKISH-V3\ZORKISH_V3\ZORKISH_V3\X64\DEBUG\SELECTADVENTURE.OBJ
C:\USERS\ROBERT\DOCUMENTS\UNI\GAMES PROGRAMMING (COS30031)\ZORKISH V3\ZORKISH-V3\ZORKISH_V3\ZORKISH_V3\X64\DEBUG\STATE.OBJ
C:\USERS\ROBERT\DOCUMENTS\UNI\GAMES PROGRAMMING (COS30031)\ZORKISH V3\ZORKISH-V3\ZORKISH_V3\ZORKISH_V3\X64\DEBUG\TRANSFERCOMMAND.OBJ
C:\WINDOWS\SYSTEM32\TZRES.DLL
C:\PROGRAM FILES (X86)\MICROSOFT VISUAL STUDIO 14.0\VC\BIN\X86_AMD64\1033\LINKUI.DLL
C:\PROGRAM FILES (X86)\MICROSOFT VISUAL STUDIO 14.0\VC\LIB\AMD64\MSVCPRTD.LIB
C:\PROGRAM FILES (X86)\MICROSOFT VISUAL STUDIO 14.0\VC\LIB\AMD64\MSVCRTD.LIB
C:\PROGRAM FILES (X86)\MICROSOFT VISUAL STUDIO 14.0\VC\LIB\AMD64\OLDNAMES.LIB
C:\PROGRAM FILES (X86)\MICROSOFT VISUAL STUDIO 14.0\VC\LIB\AMD64\VCRUNTIMED.LIB
C:\PROGRAM FILES (X86)\WINDOWS KITS\10\LIB\10.0.10240.0\UCRT\X64\UCRTD.LIB
C:\PROGRAM FILES (X86)\WINDOWS KITS\8.1\BIN\X86\RC.EXE
C:\PROGRAM FILES (X86)\MICROSOFT VISUAL STUDIO 14.0\VC\BIN\CVTRES.EXE
